%YAML 1.1
%TAG !u! tag:unity3d.com,2011:
--- !u!74 &7400000
AnimationClip:
  m_ObjectHideFlags: 0
  m_PrefabParentObject: {fileID: 0}
  m_PrefabInternal: {fileID: 0}
  m_Name: jellyfish
  serializedVersion: 6
  m_Legacy: 0
  m_Compressed: 0
  m_UseHighQualityCurve: 1
  m_RotationCurves: []
  m_CompressedRotationCurves: []
  m_EulerCurves: []
  m_PositionCurves: []
  m_ScaleCurves: []
  m_FloatCurves: []
  m_PPtrCurves:
  - curve:
    - time: 0
      value: {fileID: 21300000, guid: caa4ea2f69b1279408c178965b9b28e2, type: 3}
    - time: 0.083333336
      value: {fileID: 21300000, guid: 57461417bcff8924a9e52b6fd4758f1c, type: 3}
    - time: 0.16666667
      value: {fileID: 21300000, guid: 26873a3cb4926a84ba81617136e87c8c, type: 3}
    - time: 0.25
      value: {fileID: 21300000, guid: 17d116c083122e24187d3ffbf8eef57f, type: 3}
    - time: 0.33333334
      value: {fileID: 21300000, guid: c39516c3dc41cc849bca8d0448d0e2fe, type: 3}
    - time: 0.41666666
      value: {fileID: 21300000, guid: 8631eb01a083f254b96bccf6b0b20ed3, type: 3}
    - time: 0.5
      value: {fileID: 21300000, guid: 66fdf3592cfd5354bbc8bf650cb8e54d, type: 3}
    - time: 0.5833333
      value: {fileID: 21300000, guid: 478e8d57bec92ad48be230aeab6ca7e1, type: 3}
    - time: 0.6666667
      value: {fileID: 21300000, guid: d8a40c9b1e87f9245b5d820a979f2e64, type: 3}
    - time: 0.75
      value: {fileID: 21300000, guid: 23e6e5f5da6b93f478b1bedab6183400, type: 3}
    - time: 0.8333333
      value: {fileID: 21300000, guid: d7f725aed469dfa478af44ec777b5871, type: 3}
    - time: 0.9166667
      value: {fileID: 21300000, guid: 77e211031a2eae341b5711d6c40cd002, type: 3}
    - time: 1
      value: {fileID: 21300000, guid: 05909da31a8eb7749a0ce6b0962cd964, type: 3}
    - time: 1.0833334
      value: {fileID: 21300000, guid: 5f11792951e60ee4294238f29747b2f6, type: 3}
    - time: 1.1666666
      value: {fileID: 21300000, guid: b7acaddccda1961488d6242ca3db8134, type: 3}
    - time: 1.25
      value: {fileID: 21300000, guid: 89b442b0d81d6fb43bf4da23c5a4d259, type: 3}
    attribute: m_Sprite
    path: 
    classID: 212
    script: {fileID: 0}
  m_SampleRate: 12
  m_WrapMode: 0
  m_Bounds:
    m_Center: {x: 0, y: 0, z: 0}
    m_Extent: {x: 0, y: 0, z: 0}
  m_ClipBindingConstant:
    genericBindings:
    - serializedVersion: 2
      path: 0
      attribute: 0
      script: {fileID: 0}
      typeID: 212
      customType: 23
      isPPtrCurve: 1
    pptrCurveMapping:
    - {fileID: 21300000, guid: caa4ea2f69b1279408c178965b9b28e2, type: 3}
    - {fileID: 21300000, guid: 57461417bcff8924a9e52b6fd4758f1c, type: 3}
    - {fileID: 21300000, guid: 26873a3cb4926a84ba81617136e87c8c, type: 3}
    - {fileID: 21300000, guid: 17d116c083122e24187d3ffbf8eef57f, type: 3}
    - {fileID: 21300000, guid: c39516c3dc41cc849bca8d0448d0e2fe, type: 3}
    - {fileID: 21300000, guid: 8631eb01a083f254b96bccf6b0b20ed3, type: 3}
    - {fileID: 21300000, guid: 66fdf3592cfd5354bbc8bf650cb8e54d, type: 3}
    - {fileID: 21300000, guid: 478e8d57bec92ad48be230aeab6ca7e1, type: 3}
    - {fileID: 21300000, guid: d8a40c9b1e87f9245b5d820a979f2e64, type: 3}
    - {fileID: 21300000, guid: 23e6e5f5da6b93f478b1bedab6183400, type: 3}
    - {fileID: 21300000, guid: d7f725aed469dfa478af44ec777b5871, type: 3}
    - {fileID: 21300000, guid: 77e211031a2eae341b5711d6c40cd002, type: 3}
    - {fileID: 21300000, guid: 05909da31a8eb7749a0ce6b0962cd964, type: 3}
    - {fileID: 21300000, guid: 5f11792951e60ee4294238f29747b2f6, type: 3}
    - {fileID: 21300000, guid: b7acaddccda1961488d6242ca3db8134, type: 3}
    - {fileID: 21300000, guid: 89b442b0d81d6fb43bf4da23c5a4d259, type: 3}
  m_AnimationClipSettings:
    serializedVersion: 2
    m_AdditiveReferencePoseClip: {fileID: 0}
    m_AdditiveReferencePoseTime: 0
    m_StartTime: 0
    m_StopTime: 1.3333334
    m_OrientationOffsetY: 0
    m_Level: 0
    m_CycleOffset: 0
    m_HasAdditiveReferencePose: 0
    m_LoopTime: 1
    m_LoopBlend: 0
    m_LoopBlendOrientation: 0
    m_LoopBlendPositionY: 0
    m_LoopBlendPositionXZ: 0
    m_KeepOriginalOrientation: 0
    m_KeepOriginalPositionY: 1
    m_KeepOriginalPositionXZ: 0
    m_HeightFromFeet: 0
    m_Mirror: 0
  m_EditorCurves: []
  m_EulerEditorCurves: []
  m_HasGenericRootTransform: 0
  m_HasMotionFloatCurves: 0
  m_GenerateMotionCurves: 0
  m_Events: []
