%YAML 1.1
%TAG !u! tag:unity3d.com,2011:
--- !u!74 &7400000
AnimationClip:
  m_ObjectHideFlags: 0
  m_PrefabParentObject: {fileID: 0}
  m_PrefabInternal: {fileID: 0}
  m_Name: cabin door
  serializedVersion: 6
  m_Legacy: 0
  m_Compressed: 0
  m_UseHighQualityCurve: 1
  m_RotationCurves: []
  m_CompressedRotationCurves: []
  m_EulerCurves: []
  m_PositionCurves: []
  m_ScaleCurves: []
  m_FloatCurves: []
  m_PPtrCurves:
  - curve:
    - time: 0
      value: {fileID: 21300000, guid: 2887c76d263ebc641be3d68ff357a92c, type: 3}
    - time: 0.083333336
      value: {fileID: 21300000, guid: 55f02d71ad6f68941bede8543750f0e6, type: 3}
    - time: 0.16666667
      value: {fileID: 21300000, guid: 2c604447ec26e9845a5b3ef1dacb6fda, type: 3}
    - time: 0.25
      value: {fileID: 21300000, guid: e1673493a971e2c498784c40b3997228, type: 3}
    - time: 0.33333334
      value: {fileID: 21300000, guid: 7d7fc821e75aab84688079f4a71f54ae, type: 3}
    - time: 0.41666666
      value: {fileID: 21300000, guid: e422e6b248dcdbc4a9f646793673b0ae, type: 3}
    - time: 0.5
      value: {fileID: 21300000, guid: a84647050a516d94fb45c2d50c0bd5cd, type: 3}
    - time: 0.5833333
      value: {fileID: 21300000, guid: 24ab29c90c0d9224db5740268aac2d15, type: 3}
    - time: 0.6666667
      value: {fileID: 21300000, guid: a40f56b80ec229648bc8224a37e0eef0, type: 3}
    - time: 0.75
      value: {fileID: 21300000, guid: 0fa91580420cbf8428601fe7d4959805, type: 3}
    - time: 0.8333333
      value: {fileID: 21300000, guid: 78ed7748ebf1c844f847b6fb23e08108, type: 3}
    - time: 0.9166667
      value: {fileID: 21300000, guid: 9ab27144289dfe4498ecc1f50aff353e, type: 3}
    - time: 1
      value: {fileID: 21300000, guid: 8fae5c4f02b0de545bb163e76a6b7c99, type: 3}
    - time: 1.0833334
      value: {fileID: 21300000, guid: 142195a6bce9f5a459e5a12b24af376e, type: 3}
    - time: 1.1666666
      value: {fileID: 21300000, guid: 06a580c040b538a44947c48527572473, type: 3}
    - time: 1.25
      value: {fileID: 21300000, guid: bc9e44ae544075a45af4e669fe49b9e8, type: 3}
    - time: 1.3333334
      value: {fileID: 21300000, guid: b760793019258dc4db56d37b83368f0f, type: 3}
    - time: 1.4166666
      value: {fileID: 21300000, guid: 3e0ec3fbce75a054996498b8d987333f, type: 3}
    - time: 1.5
      value: {fileID: 21300000, guid: f33875d1d1426964da76848fd57458b5, type: 3}
    - time: 1.5833334
      value: {fileID: 21300000, guid: c16514c54509a9946932ca335e9bfdff, type: 3}
    - time: 1.6666666
      value: {fileID: 21300000, guid: 63ae7fac7866f074dba2952808d5008e, type: 3}
    - time: 1.75
      value: {fileID: 21300000, guid: d576b9530f723b04d9e2d91740c442bd, type: 3}
    - time: 1.8333334
      value: {fileID: 21300000, guid: 873e03c5fe175624ab8ead69dd0d5778, type: 3}
    - time: 1.9166666
      value: {fileID: 21300000, guid: d77550ebec4878d409e1aa4bb719d51e, type: 3}
    - time: 2
      value: {fileID: 21300000, guid: 0ae7e3ff1cf7d51429aea68b4b7cee69, type: 3}
    - time: 2.0833333
      value: {fileID: 21300000, guid: 8d20ab2910b0f1e4783c449b3be7f4b5, type: 3}
    - time: 2.1666667
      value: {fileID: 21300000, guid: a778d548100e84f4cb2eb0b4190a422b, type: 3}
    - time: 2.25
      value: {fileID: 21300000, guid: e0044d0531d6de747b8335619860f048, type: 3}
    - time: 2.3333333
      value: {fileID: 21300000, guid: 97a46c7c49205cc4ca9aeb67c3d08697, type: 3}
    - time: 2.4166667
      value: {fileID: 21300000, guid: 9fbd6cf25d009b34d80bba4245e7be39, type: 3}
    - time: 2.5
      value: {fileID: 21300000, guid: a24b14420f7a3b744a9100da6c9a4a85, type: 3}
    - time: 2.5833333
      value: {fileID: 21300000, guid: dd9cfb42615fb424da8f38a3d58ddd0f, type: 3}
    - time: 2.6666667
      value: {fileID: 21300000, guid: 54f8a30e67ea54142a226b42483f1b9c, type: 3}
    - time: 2.75
      value: {fileID: 21300000, guid: 3b9f9211796d6c944988a3cb30f0d05b, type: 3}
    - time: 2.8333333
      value: {fileID: 21300000, guid: 06483c7dc4e31bb47b5261f8251590b5, type: 3}
    - time: 2.9166667
      value: {fileID: 21300000, guid: 2211c3daec0fa784cb2a137c984f4fcc, type: 3}
    - time: 3
      value: {fileID: 21300000, guid: a13e066159b53d046ba6f2e0705c4607, type: 3}
    - time: 3.0833333
      value: {fileID: 21300000, guid: 9c3f252a3292e6249bad83f3e57511cf, type: 3}
    - time: 3.1666667
      value: {fileID: 21300000, guid: 2c8a9621a3e3a834a9d36bb55624462c, type: 3}
    - time: 3.25
      value: {fileID: 21300000, guid: 818e9d0889d274b4ea1acd09841ad4e3, type: 3}
    - time: 3.3333333
      value: {fileID: 21300000, guid: 2ddfb81276d84f2498ec6fd2cc866ae5, type: 3}
    - time: 3.4166667
      value: {fileID: 21300000, guid: a55b05465eee048408c0a5bcbe343732, type: 3}
    - time: 3.5
      value: {fileID: 21300000, guid: f17a27bb87d5f74448e0fd57f1b60a2a, type: 3}
    - time: 3.5833333
      value: {fileID: 21300000, guid: d7ae9218132970a45a57b2df49a2d524, type: 3}
    - time: 3.6666667
      value: {fileID: 21300000, guid: afd459e1d67b88341a737c2233561ced, type: 3}
    - time: 3.75
      value: {fileID: 21300000, guid: dbad083961f62bc4da9daff6639ec077, type: 3}
    - time: 3.8333333
      value: {fileID: 21300000, guid: 5ca5bf58866e43346b39c9fc020de33e, type: 3}
    - time: 3.9166667
      value: {fileID: 21300000, guid: 559e6ef329ab70440a327d2b9a577a0b, type: 3}
    - time: 4
      value: {fileID: 21300000, guid: af146bebbcdfbdf44b5c76f030b85b9f, type: 3}
    - time: 4.0833335
      value: {fileID: 21300000, guid: 8a914465188065743a9be91eeecd8164, type: 3}
    - time: 4.1666665
      value: {fileID: 21300000, guid: ca8c84a4a350d0c4db478fa39032814c, type: 3}
    - time: 4.25
      value: {fileID: 21300000, guid: f849bf201db1ed9458c7dca0ded51aae, type: 3}
    - time: 4.3333335
      value: {fileID: 21300000, guid: 32b752884f500ab48aa162764a10e82c, type: 3}
    - time: 4.4166665
      value: {fileID: 21300000, guid: 79d5ec2baf945f04eb38de09f320fad6, type: 3}
    - time: 4.5
      value: {fileID: 21300000, guid: 2f14b93599a98a34e8bf7b5d8379aa10, type: 3}
    - time: 4.5833335
      value: {fileID: 21300000, guid: 151b281b0cabc2641829ab7129e91481, type: 3}
    attribute: m_Sprite
    path: 
    classID: 212
    script: {fileID: 0}
  m_SampleRate: 12
  m_WrapMode: 0
  m_Bounds:
    m_Center: {x: 0, y: 0, z: 0}
    m_Extent: {x: 0, y: 0, z: 0}
  m_ClipBindingConstant:
    genericBindings:
    - serializedVersion: 2
      path: 0
      attribute: 0
      script: {fileID: 0}
      typeID: 212
      customType: 23
      isPPtrCurve: 1
    pptrCurveMapping:
    - {fileID: 21300000, guid: 2887c76d263ebc641be3d68ff357a92c, type: 3}
    - {fileID: 21300000, guid: 55f02d71ad6f68941bede8543750f0e6, type: 3}
    - {fileID: 21300000, guid: 2c604447ec26e9845a5b3ef1dacb6fda, type: 3}
    - {fileID: 21300000, guid: e1673493a971e2c498784c40b3997228, type: 3}
    - {fileID: 21300000, guid: 7d7fc821e75aab84688079f4a71f54ae, type: 3}
    - {fileID: 21300000, guid: e422e6b248dcdbc4a9f646793673b0ae, type: 3}
    - {fileID: 21300000, guid: a84647050a516d94fb45c2d50c0bd5cd, type: 3}
    - {fileID: 21300000, guid: 24ab29c90c0d9224db5740268aac2d15, type: 3}
    - {fileID: 21300000, guid: a40f56b80ec229648bc8224a37e0eef0, type: 3}
    - {fileID: 21300000, guid: 0fa91580420cbf8428601fe7d4959805, type: 3}
    - {fileID: 21300000, guid: 78ed7748ebf1c844f847b6fb23e08108, type: 3}
    - {fileID: 21300000, guid: 9ab27144289dfe4498ecc1f50aff353e, type: 3}
    - {fileID: 21300000, guid: 8fae5c4f02b0de545bb163e76a6b7c99, type: 3}
    - {fileID: 21300000, guid: 142195a6bce9f5a459e5a12b24af376e, type: 3}
    - {fileID: 21300000, guid: 06a580c040b538a44947c48527572473, type: 3}
    - {fileID: 21300000, guid: bc9e44ae544075a45af4e669fe49b9e8, type: 3}
    - {fileID: 21300000, guid: b760793019258dc4db56d37b83368f0f, type: 3}
    - {fileID: 21300000, guid: 3e0ec3fbce75a054996498b8d987333f, type: 3}
    - {fileID: 21300000, guid: f33875d1d1426964da76848fd57458b5, type: 3}
    - {fileID: 21300000, guid: c16514c54509a9946932ca335e9bfdff, type: 3}
    - {fileID: 21300000, guid: 63ae7fac7866f074dba2952808d5008e, type: 3}
    - {fileID: 21300000, guid: d576b9530f723b04d9e2d91740c442bd, type: 3}
    - {fileID: 21300000, guid: 873e03c5fe175624ab8ead69dd0d5778, type: 3}
    - {fileID: 21300000, guid: d77550ebec4878d409e1aa4bb719d51e, type: 3}
    - {fileID: 21300000, guid: 0ae7e3ff1cf7d51429aea68b4b7cee69, type: 3}
    - {fileID: 21300000, guid: 8d20ab2910b0f1e4783c449b3be7f4b5, type: 3}
    - {fileID: 21300000, guid: a778d548100e84f4cb2eb0b4190a422b, type: 3}
    - {fileID: 21300000, guid: e0044d0531d6de747b8335619860f048, type: 3}
    - {fileID: 21300000, guid: 97a46c7c49205cc4ca9aeb67c3d08697, type: 3}
    - {fileID: 21300000, guid: 9fbd6cf25d009b34d80bba4245e7be39, type: 3}
    - {fileID: 21300000, guid: a24b14420f7a3b744a9100da6c9a4a85, type: 3}
    - {fileID: 21300000, guid: dd9cfb42615fb424da8f38a3d58ddd0f, type: 3}
    - {fileID: 21300000, guid: 54f8a30e67ea54142a226b42483f1b9c, type: 3}
    - {fileID: 21300000, guid: 3b9f9211796d6c944988a3cb30f0d05b, type: 3}
    - {fileID: 21300000, guid: 06483c7dc4e31bb47b5261f8251590b5, type: 3}
    - {fileID: 21300000, guid: 2211c3daec0fa784cb2a137c984f4fcc, type: 3}
    - {fileID: 21300000, guid: a13e066159b53d046ba6f2e0705c4607, type: 3}
    - {fileID: 21300000, guid: 9c3f252a3292e6249bad83f3e57511cf, type: 3}
    - {fileID: 21300000, guid: 2c8a9621a3e3a834a9d36bb55624462c, type: 3}
    - {fileID: 21300000, guid: 818e9d0889d274b4ea1acd09841ad4e3, type: 3}
    - {fileID: 21300000, guid: 2ddfb81276d84f2498ec6fd2cc866ae5, type: 3}
    - {fileID: 21300000, guid: a55b05465eee048408c0a5bcbe343732, type: 3}
    - {fileID: 21300000, guid: f17a27bb87d5f74448e0fd57f1b60a2a, type: 3}
    - {fileID: 21300000, guid: d7ae9218132970a45a57b2df49a2d524, type: 3}
    - {fileID: 21300000, guid: afd459e1d67b88341a737c2233561ced, type: 3}
    - {fileID: 21300000, guid: dbad083961f62bc4da9daff6639ec077, type: 3}
    - {fileID: 21300000, guid: 5ca5bf58866e43346b39c9fc020de33e, type: 3}
    - {fileID: 21300000, guid: 559e6ef329ab70440a327d2b9a577a0b, type: 3}
    - {fileID: 21300000, guid: af146bebbcdfbdf44b5c76f030b85b9f, type: 3}
    - {fileID: 21300000, guid: 8a914465188065743a9be91eeecd8164, type: 3}
    - {fileID: 21300000, guid: ca8c84a4a350d0c4db478fa39032814c, type: 3}
    - {fileID: 21300000, guid: f849bf201db1ed9458c7dca0ded51aae, type: 3}
    - {fileID: 21300000, guid: 32b752884f500ab48aa162764a10e82c, type: 3}
    - {fileID: 21300000, guid: 79d5ec2baf945f04eb38de09f320fad6, type: 3}
    - {fileID: 21300000, guid: 2f14b93599a98a34e8bf7b5d8379aa10, type: 3}
    - {fileID: 21300000, guid: 151b281b0cabc2641829ab7129e91481, type: 3}
  m_AnimationClipSettings:
    serializedVersion: 2
    m_AdditiveReferencePoseClip: {fileID: 0}
    m_AdditiveReferencePoseTime: 0
    m_StartTime: 0
    m_StopTime: 4.666667
    m_OrientationOffsetY: 0
    m_Level: 0
    m_CycleOffset: 0
    m_HasAdditiveReferencePose: 0
    m_LoopTime: 1
    m_LoopBlend: 0
    m_LoopBlendOrientation: 0
    m_LoopBlendPositionY: 0
    m_LoopBlendPositionXZ: 0
    m_KeepOriginalOrientation: 0
    m_KeepOriginalPositionY: 1
    m_KeepOriginalPositionXZ: 0
    m_HeightFromFeet: 0
    m_Mirror: 0
  m_EditorCurves: []
  m_EulerEditorCurves: []
  m_HasGenericRootTransform: 0
  m_HasMotionFloatCurves: 0
  m_GenerateMotionCurves: 0
  m_Events: []
