%YAML 1.1
%TAG !u! tag:unity3d.com,2011:
--- !u!74 &7400000
AnimationClip:
  m_ObjectHideFlags: 0
  m_PrefabParentObject: {fileID: 0}
  m_PrefabInternal: {fileID: 0}
  m_Name: evilTreeMoving
  serializedVersion: 6
  m_Legacy: 0
  m_Compressed: 0
  m_UseHighQualityCurve: 1
  m_RotationCurves: []
  m_CompressedRotationCurves: []
  m_EulerCurves: []
  m_PositionCurves: []
  m_ScaleCurves: []
  m_FloatCurves: []
  m_PPtrCurves:
  - curve:
    - time: 0
      value: {fileID: 21300000, guid: 0cd75fb603355ea4dbb59cfb1524e697, type: 3}
    - time: 0.05
      value: {fileID: 21300000, guid: a1ce8d21bd8a2f242a7aef2928e95120, type: 3}
    - time: 0.1
      value: {fileID: 21300000, guid: c76cf33b162c0d14f867a771af769a6e, type: 3}
    - time: 0.15
      value: {fileID: 21300000, guid: eb7b371678e916e44987a24651af5b67, type: 3}
    - time: 0.2
      value: {fileID: 21300000, guid: 0af3bc8372dbad14e8cae3c68a2550ef, type: 3}
    - time: 0.25
      value: {fileID: 21300000, guid: 7e38afb53c2d37d4cbbfe7575c0c33e0, type: 3}
    - time: 0.3
      value: {fileID: 21300000, guid: f39f5d7c89931574b9f3bca92487952b, type: 3}
    - time: 0.35000002
      value: {fileID: 21300000, guid: 78044f1a6eb17eb4698b419bf737bed2, type: 3}
    - time: 0.40000004
      value: {fileID: 21300000, guid: db420b48b26d7644db5e4537794ac47c, type: 3}
    - time: 0.45000005
      value: {fileID: 21300000, guid: 71dcd94750342ab48bb264941c09d4d9, type: 3}
    - time: 0.50000006
      value: {fileID: 21300000, guid: 5fca3acb3436136458cfa7e97e94fc2b, type: 3}
    - time: 0.5500001
      value: {fileID: 21300000, guid: a7399191b3bc9cd42ae18b0f723c7796, type: 3}
    - time: 0.6000001
      value: {fileID: 21300000, guid: a30c67660eb20eb4bb7cc53742d1c2d1, type: 3}
    - time: 0.6500001
      value: {fileID: 21300000, guid: a29770a16cc195048923f30d4999c27b, type: 3}
    - time: 0.7000001
      value: {fileID: 21300000, guid: 5a76fb48dc049f14991fb4fbde7d0e3e, type: 3}
    - time: 0.7500001
      value: {fileID: 21300000, guid: 7f753731a6dd59c4ca9135fc769ece6f, type: 3}
    - time: 0.80000013
      value: {fileID: 21300000, guid: 41e59d3b587e3354c8474e60f251f57b, type: 3}
    - time: 0.85000014
      value: {fileID: 21300000, guid: e6eb13fbb25116642aeddd9a7143c67e, type: 3}
    - time: 0.90000015
      value: {fileID: 21300000, guid: b3afd7aef1c52574d97dbdfbcdaef4d3, type: 3}
    - time: 0.95000017
      value: {fileID: 21300000, guid: 566f07f045809814cbdcbbea98904c76, type: 3}
    - time: 1.0000001
      value: {fileID: 21300000, guid: c1cd011059ff43945bc47a46d125b28c, type: 3}
    - time: 1.0500001
      value: {fileID: 21300000, guid: 793ba16e186d91542be675caf7cd1360, type: 3}
    - time: 1.1
      value: {fileID: 21300000, guid: a8c43b97aa8fd1d4c85125e29751ceec, type: 3}
    - time: 1.15
      value: {fileID: 21300000, guid: 7d3da894584ed654891a96544e8ed701, type: 3}
    - time: 1.1999999
      value: {fileID: 21300000, guid: ddfd7017efe58ad44976f6670f18c0cd, type: 3}
    - time: 1.2499999
      value: {fileID: 21300000, guid: 397ace56c1c64304f93fb1c804813614, type: 3}
    - time: 1.2999998
      value: {fileID: 21300000, guid: 84c5ab9af17f7764ba93197e9c3f523a, type: 3}
    - time: 1.3499998
      value: {fileID: 21300000, guid: a5494550ef322f44e9b955cef705d8da, type: 3}
    - time: 1.3999997
      value: {fileID: 21300000, guid: 58e0db8bef66b4647840163c9ae63a55, type: 3}
    - time: 1.4499997
      value: {fileID: 21300000, guid: f19628e7da175fc4297f88a680e11e34, type: 3}
    - time: 1.4999996
      value: {fileID: 21300000, guid: ba62ae9bae5165a4585ecbdd346daada, type: 3}
    - time: 1.5499996
      value: {fileID: 21300000, guid: eefb131790f80ed418dfa71850ca41e5, type: 3}
    - time: 1.5999995
      value: {fileID: 21300000, guid: 431a68e57fe70514f96f131531e07371, type: 3}
    - time: 1.6499995
      value: {fileID: 21300000, guid: 5f72c1d6a1417e24895224f51a7fcb82, type: 3}
    - time: 1.6999995
      value: {fileID: 21300000, guid: 95af637baa453944798a032bd54eba26, type: 3}
    - time: 1.7499994
      value: {fileID: 21300000, guid: 22046def8e49b7941b8c2dbbd175617d, type: 3}
    - time: 1.7999994
      value: {fileID: 21300000, guid: 3d7bdc2d68ea83c45b0fede6e4c33f0b, type: 3}
    attribute: m_Sprite
    path: 
    classID: 212
    script: {fileID: 0}
  m_SampleRate: 20
  m_WrapMode: 0
  m_Bounds:
    m_Center: {x: 0, y: 0, z: 0}
    m_Extent: {x: 0, y: 0, z: 0}
  m_ClipBindingConstant:
    genericBindings:
    - serializedVersion: 2
      path: 0
      attribute: 0
      script: {fileID: 0}
      typeID: 212
      customType: 23
      isPPtrCurve: 1
    pptrCurveMapping:
    - {fileID: 21300000, guid: 0cd75fb603355ea4dbb59cfb1524e697, type: 3}
    - {fileID: 21300000, guid: a1ce8d21bd8a2f242a7aef2928e95120, type: 3}
    - {fileID: 21300000, guid: c76cf33b162c0d14f867a771af769a6e, type: 3}
    - {fileID: 21300000, guid: eb7b371678e916e44987a24651af5b67, type: 3}
    - {fileID: 21300000, guid: 0af3bc8372dbad14e8cae3c68a2550ef, type: 3}
    - {fileID: 21300000, guid: 7e38afb53c2d37d4cbbfe7575c0c33e0, type: 3}
    - {fileID: 21300000, guid: f39f5d7c89931574b9f3bca92487952b, type: 3}
    - {fileID: 21300000, guid: 78044f1a6eb17eb4698b419bf737bed2, type: 3}
    - {fileID: 21300000, guid: db420b48b26d7644db5e4537794ac47c, type: 3}
    - {fileID: 21300000, guid: 71dcd94750342ab48bb264941c09d4d9, type: 3}
    - {fileID: 21300000, guid: 5fca3acb3436136458cfa7e97e94fc2b, type: 3}
    - {fileID: 21300000, guid: a7399191b3bc9cd42ae18b0f723c7796, type: 3}
    - {fileID: 21300000, guid: a30c67660eb20eb4bb7cc53742d1c2d1, type: 3}
    - {fileID: 21300000, guid: a29770a16cc195048923f30d4999c27b, type: 3}
    - {fileID: 21300000, guid: 5a76fb48dc049f14991fb4fbde7d0e3e, type: 3}
    - {fileID: 21300000, guid: 7f753731a6dd59c4ca9135fc769ece6f, type: 3}
    - {fileID: 21300000, guid: 41e59d3b587e3354c8474e60f251f57b, type: 3}
    - {fileID: 21300000, guid: e6eb13fbb25116642aeddd9a7143c67e, type: 3}
    - {fileID: 21300000, guid: b3afd7aef1c52574d97dbdfbcdaef4d3, type: 3}
    - {fileID: 21300000, guid: 566f07f045809814cbdcbbea98904c76, type: 3}
    - {fileID: 21300000, guid: c1cd011059ff43945bc47a46d125b28c, type: 3}
    - {fileID: 21300000, guid: 793ba16e186d91542be675caf7cd1360, type: 3}
    - {fileID: 21300000, guid: a8c43b97aa8fd1d4c85125e29751ceec, type: 3}
    - {fileID: 21300000, guid: 7d3da894584ed654891a96544e8ed701, type: 3}
    - {fileID: 21300000, guid: ddfd7017efe58ad44976f6670f18c0cd, type: 3}
    - {fileID: 21300000, guid: 397ace56c1c64304f93fb1c804813614, type: 3}
    - {fileID: 21300000, guid: 84c5ab9af17f7764ba93197e9c3f523a, type: 3}
    - {fileID: 21300000, guid: a5494550ef322f44e9b955cef705d8da, type: 3}
    - {fileID: 21300000, guid: 58e0db8bef66b4647840163c9ae63a55, type: 3}
    - {fileID: 21300000, guid: f19628e7da175fc4297f88a680e11e34, type: 3}
    - {fileID: 21300000, guid: ba62ae9bae5165a4585ecbdd346daada, type: 3}
    - {fileID: 21300000, guid: eefb131790f80ed418dfa71850ca41e5, type: 3}
    - {fileID: 21300000, guid: 431a68e57fe70514f96f131531e07371, type: 3}
    - {fileID: 21300000, guid: 5f72c1d6a1417e24895224f51a7fcb82, type: 3}
    - {fileID: 21300000, guid: 95af637baa453944798a032bd54eba26, type: 3}
    - {fileID: 21300000, guid: 22046def8e49b7941b8c2dbbd175617d, type: 3}
    - {fileID: 21300000, guid: 3d7bdc2d68ea83c45b0fede6e4c33f0b, type: 3}
  m_AnimationClipSettings:
    serializedVersion: 2
    m_AdditiveReferencePoseClip: {fileID: 0}
    m_AdditiveReferencePoseTime: 0
    m_StartTime: 0
    m_StopTime: 1.8499993
    m_OrientationOffsetY: 0
    m_Level: 0
    m_CycleOffset: 0
    m_HasAdditiveReferencePose: 0
    m_LoopTime: 1
    m_LoopBlend: 0
    m_LoopBlendOrientation: 0
    m_LoopBlendPositionY: 0
    m_LoopBlendPositionXZ: 0
    m_KeepOriginalOrientation: 0
    m_KeepOriginalPositionY: 1
    m_KeepOriginalPositionXZ: 0
    m_HeightFromFeet: 0
    m_Mirror: 0
  m_EditorCurves: []
  m_EulerEditorCurves: []
  m_HasGenericRootTransform: 0
  m_HasMotionFloatCurves: 0
  m_GenerateMotionCurves: 0
  m_Events: []
