%YAML 1.1
%TAG !u! tag:unity3d.com,2011:
--- !u!74 &7400000
AnimationClip:
  m_ObjectHideFlags: 0
  m_PrefabParentObject: {fileID: 0}
  m_PrefabInternal: {fileID: 0}
  m_Name: frogola
  serializedVersion: 6
  m_Legacy: 0
  m_Compressed: 0
  m_UseHighQualityCurve: 1
  m_RotationCurves: []
  m_CompressedRotationCurves: []
  m_EulerCurves: []
  m_PositionCurves: []
  m_ScaleCurves: []
  m_FloatCurves: []
  m_PPtrCurves:
  - curve:
    - time: 0
      value: {fileID: 21300000, guid: 93dd4dd69e4f6e64081873fc06242c9f, type: 3}
    - time: 0.083333336
      value: {fileID: 21300000, guid: 52325cdef5340dc488dbb467c8830a9a, type: 3}
    - time: 0.16666667
      value: {fileID: 21300000, guid: 22fde8a4dee143c48b88724d718a3b2a, type: 3}
    - time: 0.25
      value: {fileID: 21300000, guid: 6111cf43dff6cbf45a759e1f5136688b, type: 3}
    - time: 0.33333334
      value: {fileID: 21300000, guid: 6b03db442040195409dd056b7947aadb, type: 3}
    - time: 0.41666666
      value: {fileID: 21300000, guid: 66048326d4860de4eb735a75524cbb3b, type: 3}
    - time: 0.5
      value: {fileID: 21300000, guid: 64d3a97cffd799c42878f974a4b097cb, type: 3}
    - time: 0.5833333
      value: {fileID: 21300000, guid: 00c8ba393433448439ceb3114d6023dc, type: 3}
    - time: 0.6666667
      value: {fileID: 21300000, guid: afd09d1ce2536fb41853b2152818d51c, type: 3}
    - time: 0.75
      value: {fileID: 21300000, guid: 4a566152615c7e04a83c0549c086ee46, type: 3}
    - time: 0.8333333
      value: {fileID: 21300000, guid: cd57cdb22012c51408918855480066e4, type: 3}
    - time: 0.9166667
      value: {fileID: 21300000, guid: 73063a19bf6e84a4b8e305eaaab54a60, type: 3}
    - time: 1
      value: {fileID: 21300000, guid: c18e22cd1b2505745940fa37bcc8893d, type: 3}
    - time: 1.0833334
      value: {fileID: 21300000, guid: d77f35cd04276b94ba0eac009b6340ed, type: 3}
    - time: 1.1666666
      value: {fileID: 21300000, guid: 3671e780811a7984ab35286859cbcba4, type: 3}
    - time: 1.25
      value: {fileID: 21300000, guid: 006797bd56ecb634ab2718d2a0c8be4f, type: 3}
    - time: 1.3333334
      value: {fileID: 21300000, guid: 4aa4fcc03baa9be43b816114f2f19fb8, type: 3}
    - time: 1.4166666
      value: {fileID: 21300000, guid: 959ea06c6b28e9d4d97c077beccbccc8, type: 3}
    - time: 1.5
      value: {fileID: 21300000, guid: 432052c8babcdaa489844a19170bd1d4, type: 3}
    - time: 1.5833334
      value: {fileID: 21300000, guid: 509a16f85e0fa7341b3683ebbcfd0f1a, type: 3}
    - time: 1.6666666
      value: {fileID: 21300000, guid: 0babde1f69288ee48a1aea0ea34b11b8, type: 3}
    - time: 1.75
      value: {fileID: 21300000, guid: 4a7c9200ec61b084aa14332140b35931, type: 3}
    - time: 1.8333334
      value: {fileID: 21300000, guid: 680ea7eb241080c42801d1dd62c99888, type: 3}
    - time: 1.9166666
      value: {fileID: 21300000, guid: 6899b893e6a81144586605112d66dd95, type: 3}
    - time: 2
      value: {fileID: 21300000, guid: dd537d3ba2191e54a840e8726c499356, type: 3}
    - time: 2.0833333
      value: {fileID: 21300000, guid: 202ab38a698cb284699ba8712c81014f, type: 3}
    - time: 2.1666667
      value: {fileID: 21300000, guid: f8b9f9e416a9bec42845c02babd84b0d, type: 3}
    - time: 2.25
      value: {fileID: 21300000, guid: f14a436ee08af3440950811af870d331, type: 3}
    - time: 2.3333333
      value: {fileID: 21300000, guid: cfb7914334a2f3449a093654ff3c2e45, type: 3}
    - time: 2.4166667
      value: {fileID: 21300000, guid: 2c16ed8a5a5fe604387a5e54ae5ab4d9, type: 3}
    - time: 2.5
      value: {fileID: 21300000, guid: 24b9cfbb997140c4488970595a78dc0c, type: 3}
    - time: 2.5833333
      value: {fileID: 21300000, guid: 8f0bcabe1b5a5214fae57db5d0cc106d, type: 3}
    - time: 2.6666667
      value: {fileID: 21300000, guid: 9aa7c12352ba3d14dbdee571aabb60ff, type: 3}
    - time: 2.75
      value: {fileID: 21300000, guid: cd76662402c681f4b9ce4ec0f08ce07a, type: 3}
    - time: 2.8333333
      value: {fileID: 21300000, guid: f53912646be7cf24a8d9fdfe9505208c, type: 3}
    - time: 2.9166667
      value: {fileID: 21300000, guid: c238f0bc3d05ef44caf94bba8dd59bff, type: 3}
    - time: 3
      value: {fileID: 21300000, guid: 965edc19cda67b04a86d666963ae0ffc, type: 3}
    - time: 3.0833333
      value: {fileID: 21300000, guid: b78c4140e10709340a7ee45aa39fb5cc, type: 3}
    - time: 3.1666667
      value: {fileID: 21300000, guid: 3b696d60941a39c40b6529ee1145fb22, type: 3}
    - time: 3.25
      value: {fileID: 21300000, guid: 4ed9d105a3847bf46a7e172a2d1894e7, type: 3}
    - time: 3.3333333
      value: {fileID: 21300000, guid: 2794d76e927721a45951e48c4ae412fe, type: 3}
    - time: 3.4166667
      value: {fileID: 21300000, guid: 780bc58bdbf15af43ad145cb5f1d0fac, type: 3}
    - time: 3.5
      value: {fileID: 21300000, guid: 7fd4972dc229e0b4d82365f4701e37d4, type: 3}
    - time: 3.5833333
      value: {fileID: 21300000, guid: efe90a3d4a00a314b9c21a2744563e90, type: 3}
    - time: 3.6666667
      value: {fileID: 21300000, guid: c6cf61aacae05f547ba5b2ee9887873f, type: 3}
    - time: 3.75
      value: {fileID: 21300000, guid: 9fa103ef37c22dc4f9d7f94928772747, type: 3}
    - time: 3.8333333
      value: {fileID: 21300000, guid: ca8049e6baf9db748bfe8f8c9f5204f3, type: 3}
    - time: 3.9166667
      value: {fileID: 21300000, guid: ce4c40cbe76ceb14f953a0d03b793619, type: 3}
    - time: 4
      value: {fileID: 21300000, guid: 0347aa681958209448a06cb5a50a51ac, type: 3}
    - time: 4.0833335
      value: {fileID: 21300000, guid: 09b4aca2be7f96d45b332cafc9e961eb, type: 3}
    - time: 4.1666665
      value: {fileID: 21300000, guid: 6d24aeac77a4bb84ea2e71baa6c5db64, type: 3}
    - time: 4.25
      value: {fileID: 21300000, guid: 59686be403b2d8f4d9df92892893b20a, type: 3}
    - time: 4.3333335
      value: {fileID: 21300000, guid: 93bb8cf7c170ca446bd79808660c1468, type: 3}
    - time: 4.4166665
      value: {fileID: 21300000, guid: ca3480cb97def694e96bc6a1156821da, type: 3}
    - time: 4.5
      value: {fileID: 21300000, guid: dbb8602fce548e648b107a8491710a6d, type: 3}
    - time: 4.5833335
      value: {fileID: 21300000, guid: e3743fc49a92d98409e9af6a2c8ee321, type: 3}
    - time: 4.6666665
      value: {fileID: 21300000, guid: fc88f89afdb3a494badd2657540ea5a9, type: 3}
    - time: 4.75
      value: {fileID: 21300000, guid: ba7da2e104347334fb44b1b5f4f1eac2, type: 3}
    - time: 4.8333335
      value: {fileID: 21300000, guid: d6c7e46fe65bf864ab2b4fb19d758d90, type: 3}
    - time: 4.9166665
      value: {fileID: 21300000, guid: e1948e4ac8334f743af26ee4d6901ad9, type: 3}
    - time: 5
      value: {fileID: 21300000, guid: cc09cc9cc0fc83f41a93a360ba4961e8, type: 3}
    - time: 5.0833335
      value: {fileID: 21300000, guid: d2ad4e8e0d32dd442aec57ed0b641d4a, type: 3}
    - time: 5.1666665
      value: {fileID: 21300000, guid: c92f5f8e7fd845c4b9304319bc34df9c, type: 3}
    - time: 5.25
      value: {fileID: 21300000, guid: 940fc9ec90726c842b0018a97ef5ecfb, type: 3}
    - time: 5.3333335
      value: {fileID: 21300000, guid: 422d487e633c4f244a790eae8f5d9be3, type: 3}
    - time: 5.4166665
      value: {fileID: 21300000, guid: f132a53c1d56849438260f3855066e04, type: 3}
    attribute: m_Sprite
    path: 
    classID: 212
    script: {fileID: 0}
  m_SampleRate: 12
  m_WrapMode: 0
  m_Bounds:
    m_Center: {x: 0, y: 0, z: 0}
    m_Extent: {x: 0, y: 0, z: 0}
  m_ClipBindingConstant:
    genericBindings:
    - serializedVersion: 2
      path: 0
      attribute: 0
      script: {fileID: 0}
      typeID: 212
      customType: 23
      isPPtrCurve: 1
    pptrCurveMapping:
    - {fileID: 21300000, guid: 93dd4dd69e4f6e64081873fc06242c9f, type: 3}
    - {fileID: 21300000, guid: 52325cdef5340dc488dbb467c8830a9a, type: 3}
    - {fileID: 21300000, guid: 22fde8a4dee143c48b88724d718a3b2a, type: 3}
    - {fileID: 21300000, guid: 6111cf43dff6cbf45a759e1f5136688b, type: 3}
    - {fileID: 21300000, guid: 6b03db442040195409dd056b7947aadb, type: 3}
    - {fileID: 21300000, guid: 66048326d4860de4eb735a75524cbb3b, type: 3}
    - {fileID: 21300000, guid: 64d3a97cffd799c42878f974a4b097cb, type: 3}
    - {fileID: 21300000, guid: 00c8ba393433448439ceb3114d6023dc, type: 3}
    - {fileID: 21300000, guid: afd09d1ce2536fb41853b2152818d51c, type: 3}
    - {fileID: 21300000, guid: 4a566152615c7e04a83c0549c086ee46, type: 3}
    - {fileID: 21300000, guid: cd57cdb22012c51408918855480066e4, type: 3}
    - {fileID: 21300000, guid: 73063a19bf6e84a4b8e305eaaab54a60, type: 3}
    - {fileID: 21300000, guid: c18e22cd1b2505745940fa37bcc8893d, type: 3}
    - {fileID: 21300000, guid: d77f35cd04276b94ba0eac009b6340ed, type: 3}
    - {fileID: 21300000, guid: 3671e780811a7984ab35286859cbcba4, type: 3}
    - {fileID: 21300000, guid: 006797bd56ecb634ab2718d2a0c8be4f, type: 3}
    - {fileID: 21300000, guid: 4aa4fcc03baa9be43b816114f2f19fb8, type: 3}
    - {fileID: 21300000, guid: 959ea06c6b28e9d4d97c077beccbccc8, type: 3}
    - {fileID: 21300000, guid: 432052c8babcdaa489844a19170bd1d4, type: 3}
    - {fileID: 21300000, guid: 509a16f85e0fa7341b3683ebbcfd0f1a, type: 3}
    - {fileID: 21300000, guid: 0babde1f69288ee48a1aea0ea34b11b8, type: 3}
    - {fileID: 21300000, guid: 4a7c9200ec61b084aa14332140b35931, type: 3}
    - {fileID: 21300000, guid: 680ea7eb241080c42801d1dd62c99888, type: 3}
    - {fileID: 21300000, guid: 6899b893e6a81144586605112d66dd95, type: 3}
    - {fileID: 21300000, guid: dd537d3ba2191e54a840e8726c499356, type: 3}
    - {fileID: 21300000, guid: 202ab38a698cb284699ba8712c81014f, type: 3}
    - {fileID: 21300000, guid: f8b9f9e416a9bec42845c02babd84b0d, type: 3}
    - {fileID: 21300000, guid: f14a436ee08af3440950811af870d331, type: 3}
    - {fileID: 21300000, guid: cfb7914334a2f3449a093654ff3c2e45, type: 3}
    - {fileID: 21300000, guid: 2c16ed8a5a5fe604387a5e54ae5ab4d9, type: 3}
    - {fileID: 21300000, guid: 24b9cfbb997140c4488970595a78dc0c, type: 3}
    - {fileID: 21300000, guid: 8f0bcabe1b5a5214fae57db5d0cc106d, type: 3}
    - {fileID: 21300000, guid: 9aa7c12352ba3d14dbdee571aabb60ff, type: 3}
    - {fileID: 21300000, guid: cd76662402c681f4b9ce4ec0f08ce07a, type: 3}
    - {fileID: 21300000, guid: f53912646be7cf24a8d9fdfe9505208c, type: 3}
    - {fileID: 21300000, guid: c238f0bc3d05ef44caf94bba8dd59bff, type: 3}
    - {fileID: 21300000, guid: 965edc19cda67b04a86d666963ae0ffc, type: 3}
    - {fileID: 21300000, guid: b78c4140e10709340a7ee45aa39fb5cc, type: 3}
    - {fileID: 21300000, guid: 3b696d60941a39c40b6529ee1145fb22, type: 3}
    - {fileID: 21300000, guid: 4ed9d105a3847bf46a7e172a2d1894e7, type: 3}
    - {fileID: 21300000, guid: 2794d76e927721a45951e48c4ae412fe, type: 3}
    - {fileID: 21300000, guid: 780bc58bdbf15af43ad145cb5f1d0fac, type: 3}
    - {fileID: 21300000, guid: 7fd4972dc229e0b4d82365f4701e37d4, type: 3}
    - {fileID: 21300000, guid: efe90a3d4a00a314b9c21a2744563e90, type: 3}
    - {fileID: 21300000, guid: c6cf61aacae05f547ba5b2ee9887873f, type: 3}
    - {fileID: 21300000, guid: 9fa103ef37c22dc4f9d7f94928772747, type: 3}
    - {fileID: 21300000, guid: ca8049e6baf9db748bfe8f8c9f5204f3, type: 3}
    - {fileID: 21300000, guid: ce4c40cbe76ceb14f953a0d03b793619, type: 3}
    - {fileID: 21300000, guid: 0347aa681958209448a06cb5a50a51ac, type: 3}
    - {fileID: 21300000, guid: 09b4aca2be7f96d45b332cafc9e961eb, type: 3}
    - {fileID: 21300000, guid: 6d24aeac77a4bb84ea2e71baa6c5db64, type: 3}
    - {fileID: 21300000, guid: 59686be403b2d8f4d9df92892893b20a, type: 3}
    - {fileID: 21300000, guid: 93bb8cf7c170ca446bd79808660c1468, type: 3}
    - {fileID: 21300000, guid: ca3480cb97def694e96bc6a1156821da, type: 3}
    - {fileID: 21300000, guid: dbb8602fce548e648b107a8491710a6d, type: 3}
    - {fileID: 21300000, guid: e3743fc49a92d98409e9af6a2c8ee321, type: 3}
    - {fileID: 21300000, guid: fc88f89afdb3a494badd2657540ea5a9, type: 3}
    - {fileID: 21300000, guid: ba7da2e104347334fb44b1b5f4f1eac2, type: 3}
    - {fileID: 21300000, guid: d6c7e46fe65bf864ab2b4fb19d758d90, type: 3}
    - {fileID: 21300000, guid: e1948e4ac8334f743af26ee4d6901ad9, type: 3}
    - {fileID: 21300000, guid: cc09cc9cc0fc83f41a93a360ba4961e8, type: 3}
    - {fileID: 21300000, guid: d2ad4e8e0d32dd442aec57ed0b641d4a, type: 3}
    - {fileID: 21300000, guid: c92f5f8e7fd845c4b9304319bc34df9c, type: 3}
    - {fileID: 21300000, guid: 940fc9ec90726c842b0018a97ef5ecfb, type: 3}
    - {fileID: 21300000, guid: 422d487e633c4f244a790eae8f5d9be3, type: 3}
    - {fileID: 21300000, guid: f132a53c1d56849438260f3855066e04, type: 3}
  m_AnimationClipSettings:
    serializedVersion: 2
    m_AdditiveReferencePoseClip: {fileID: 0}
    m_AdditiveReferencePoseTime: 0
    m_StartTime: 0
    m_StopTime: 5.5
    m_OrientationOffsetY: 0
    m_Level: 0
    m_CycleOffset: 0
    m_HasAdditiveReferencePose: 0
    m_LoopTime: 1
    m_LoopBlend: 0
    m_LoopBlendOrientation: 0
    m_LoopBlendPositionY: 0
    m_LoopBlendPositionXZ: 0
    m_KeepOriginalOrientation: 0
    m_KeepOriginalPositionY: 1
    m_KeepOriginalPositionXZ: 0
    m_HeightFromFeet: 0
    m_Mirror: 0
  m_EditorCurves: []
  m_EulerEditorCurves: []
  m_HasGenericRootTransform: 0
  m_HasMotionFloatCurves: 0
  m_GenerateMotionCurves: 0
  m_Events: []
