%YAML 1.1
%TAG !u! tag:unity3d.com,2011:
--- !u!74 &7400000
AnimationClip:
  m_ObjectHideFlags: 0
  m_PrefabParentObject: {fileID: 0}
  m_PrefabInternal: {fileID: 0}
  m_Name: bubbles
  serializedVersion: 6
  m_Legacy: 0
  m_Compressed: 0
  m_UseHighQualityCurve: 1
  m_RotationCurves: []
  m_CompressedRotationCurves: []
  m_EulerCurves: []
  m_PositionCurves: []
  m_ScaleCurves: []
  m_FloatCurves: []
  m_PPtrCurves:
  - curve:
    - time: 0
      value: {fileID: 21300000, guid: f5a59dfb1f25a84479ff2ada6b04b673, type: 3}
    - time: 0.1
      value: {fileID: 21300000, guid: a3a8cb08519b78947af633b9065d5534, type: 3}
    - time: 0.2
      value: {fileID: 21300000, guid: 749da779642c64c46a827ec0376f0454, type: 3}
    - time: 0.3
      value: {fileID: 21300000, guid: 09bdfadb32c13d94394d31fbea132dfe, type: 3}
    - time: 0.4
      value: {fileID: 21300000, guid: 6b94ce864d9159146b2db4e28703efaa, type: 3}
    - time: 0.5
      value: {fileID: 21300000, guid: 20978d7a004211b4298693f3a34eb9ea, type: 3}
    - time: 0.6
      value: {fileID: 21300000, guid: d3457a281d79f6a43b02b351ee79e86b, type: 3}
    - time: 0.70000005
      value: {fileID: 21300000, guid: af41df532fe08c14bb922a0be697123c, type: 3}
    - time: 0.8000001
      value: {fileID: 21300000, guid: 8554d4788a901454e8d64147001a54a1, type: 3}
    - time: 0.9000001
      value: {fileID: 21300000, guid: 887d7b6e59783e04d8c27f2a8eb060a1, type: 3}
    attribute: m_Sprite
    path: 
    classID: 212
    script: {fileID: 0}
  m_SampleRate: 10
  m_WrapMode: 0
  m_Bounds:
    m_Center: {x: 0, y: 0, z: 0}
    m_Extent: {x: 0, y: 0, z: 0}
  m_ClipBindingConstant:
    genericBindings:
    - serializedVersion: 2
      path: 0
      attribute: 0
      script: {fileID: 0}
      typeID: 212
      customType: 23
      isPPtrCurve: 1
    pptrCurveMapping:
    - {fileID: 21300000, guid: f5a59dfb1f25a84479ff2ada6b04b673, type: 3}
    - {fileID: 21300000, guid: a3a8cb08519b78947af633b9065d5534, type: 3}
    - {fileID: 21300000, guid: 749da779642c64c46a827ec0376f0454, type: 3}
    - {fileID: 21300000, guid: 09bdfadb32c13d94394d31fbea132dfe, type: 3}
    - {fileID: 21300000, guid: 6b94ce864d9159146b2db4e28703efaa, type: 3}
    - {fileID: 21300000, guid: 20978d7a004211b4298693f3a34eb9ea, type: 3}
    - {fileID: 21300000, guid: d3457a281d79f6a43b02b351ee79e86b, type: 3}
    - {fileID: 21300000, guid: af41df532fe08c14bb922a0be697123c, type: 3}
    - {fileID: 21300000, guid: 8554d4788a901454e8d64147001a54a1, type: 3}
    - {fileID: 21300000, guid: 887d7b6e59783e04d8c27f2a8eb060a1, type: 3}
  m_AnimationClipSettings:
    serializedVersion: 2
    m_AdditiveReferencePoseClip: {fileID: 0}
    m_AdditiveReferencePoseTime: 0
    m_StartTime: 0
    m_StopTime: 1.0000001
    m_OrientationOffsetY: 0
    m_Level: 0
    m_CycleOffset: 0
    m_HasAdditiveReferencePose: 0
    m_LoopTime: 1
    m_LoopBlend: 0
    m_LoopBlendOrientation: 0
    m_LoopBlendPositionY: 0
    m_LoopBlendPositionXZ: 0
    m_KeepOriginalOrientation: 0
    m_KeepOriginalPositionY: 1
    m_KeepOriginalPositionXZ: 0
    m_HeightFromFeet: 0
    m_Mirror: 0
  m_EditorCurves: []
  m_EulerEditorCurves: []
  m_HasGenericRootTransform: 0
  m_HasMotionFloatCurves: 0
  m_GenerateMotionCurves: 0
  m_Events: []
