%YAML 1.1
%TAG !u! tag:unity3d.com,2011:
--- !u!74 &7400000
AnimationClip:
  m_ObjectHideFlags: 0
  m_PrefabParentObject: {fileID: 0}
  m_PrefabInternal: {fileID: 0}
  m_Name: greenfish
  serializedVersion: 6
  m_Legacy: 0
  m_Compressed: 0
  m_UseHighQualityCurve: 1
  m_RotationCurves: []
  m_CompressedRotationCurves: []
  m_EulerCurves: []
  m_PositionCurves: []
  m_ScaleCurves: []
  m_FloatCurves: []
  m_PPtrCurves:
  - curve:
    - time: 0
      value: {fileID: 21300000, guid: a2fb8d9b043d8f54595af590d37c0f7e, type: 3}
    - time: 0.083333336
      value: {fileID: 21300000, guid: deb62a11b4a0b7641acf140c0c2fed49, type: 3}
    - time: 0.16666667
      value: {fileID: 21300000, guid: f75e594108fdec9439005c12689f0186, type: 3}
    - time: 0.25
      value: {fileID: 21300000, guid: 06dfb10e8d8ebae46bcbe62dc156801e, type: 3}
    - time: 0.33333334
      value: {fileID: 21300000, guid: 6505340e87ff9d84ea3b40c7087c67c2, type: 3}
    - time: 0.41666666
      value: {fileID: 21300000, guid: 0288292fbc576c643945406ae7d81dcb, type: 3}
    - time: 0.5
      value: {fileID: 21300000, guid: c7888be083fad60459d0a8c53e6bc0dc, type: 3}
    - time: 0.5833333
      value: {fileID: 21300000, guid: e8c4fe4f8c00c6646b9f357cf94845b5, type: 3}
    - time: 0.6666667
      value: {fileID: 21300000, guid: 5c980d4897717e14ca0bfb009bd97e5d, type: 3}
    - time: 0.75
      value: {fileID: 21300000, guid: a84e6c8ca8787ff49b3da433544ea735, type: 3}
    - time: 0.8333333
      value: {fileID: 21300000, guid: 506da3e1313981a4d8cf61f023bda614, type: 3}
    - time: 0.9166667
      value: {fileID: 21300000, guid: 001275c8172344e4698cf17b1ec1d7dd, type: 3}
    - time: 1
      value: {fileID: 21300000, guid: 8af1beabc4bdb514f8c55f2f75a0a7a3, type: 3}
    - time: 1.0833334
      value: {fileID: 21300000, guid: fde0c3382fdada74a8a9c6a530f6d109, type: 3}
    - time: 1.1666666
      value: {fileID: 21300000, guid: 0681f96f3bc710842893ad5746c20475, type: 3}
    - time: 1.25
      value: {fileID: 21300000, guid: 7a60b3c7e82980843bff4b377bfe77f6, type: 3}
    - time: 1.3333334
      value: {fileID: 21300000, guid: 15069e565e7811941a48a0a6c9deedd1, type: 3}
    - time: 1.4166666
      value: {fileID: 21300000, guid: a3d531e0a78026840b974ca993601def, type: 3}
    attribute: m_Sprite
    path: 
    classID: 212
    script: {fileID: 0}
  m_SampleRate: 12
  m_WrapMode: 0
  m_Bounds:
    m_Center: {x: 0, y: 0, z: 0}
    m_Extent: {x: 0, y: 0, z: 0}
  m_ClipBindingConstant:
    genericBindings:
    - serializedVersion: 2
      path: 0
      attribute: 0
      script: {fileID: 0}
      typeID: 212
      customType: 23
      isPPtrCurve: 1
    pptrCurveMapping:
    - {fileID: 21300000, guid: a2fb8d9b043d8f54595af590d37c0f7e, type: 3}
    - {fileID: 21300000, guid: deb62a11b4a0b7641acf140c0c2fed49, type: 3}
    - {fileID: 21300000, guid: f75e594108fdec9439005c12689f0186, type: 3}
    - {fileID: 21300000, guid: 06dfb10e8d8ebae46bcbe62dc156801e, type: 3}
    - {fileID: 21300000, guid: 6505340e87ff9d84ea3b40c7087c67c2, type: 3}
    - {fileID: 21300000, guid: 0288292fbc576c643945406ae7d81dcb, type: 3}
    - {fileID: 21300000, guid: c7888be083fad60459d0a8c53e6bc0dc, type: 3}
    - {fileID: 21300000, guid: e8c4fe4f8c00c6646b9f357cf94845b5, type: 3}
    - {fileID: 21300000, guid: 5c980d4897717e14ca0bfb009bd97e5d, type: 3}
    - {fileID: 21300000, guid: a84e6c8ca8787ff49b3da433544ea735, type: 3}
    - {fileID: 21300000, guid: 506da3e1313981a4d8cf61f023bda614, type: 3}
    - {fileID: 21300000, guid: 001275c8172344e4698cf17b1ec1d7dd, type: 3}
    - {fileID: 21300000, guid: 8af1beabc4bdb514f8c55f2f75a0a7a3, type: 3}
    - {fileID: 21300000, guid: fde0c3382fdada74a8a9c6a530f6d109, type: 3}
    - {fileID: 21300000, guid: 0681f96f3bc710842893ad5746c20475, type: 3}
    - {fileID: 21300000, guid: 7a60b3c7e82980843bff4b377bfe77f6, type: 3}
    - {fileID: 21300000, guid: 15069e565e7811941a48a0a6c9deedd1, type: 3}
    - {fileID: 21300000, guid: a3d531e0a78026840b974ca993601def, type: 3}
  m_AnimationClipSettings:
    serializedVersion: 2
    m_AdditiveReferencePoseClip: {fileID: 0}
    m_AdditiveReferencePoseTime: 0
    m_StartTime: 0
    m_StopTime: 1.5
    m_OrientationOffsetY: 0
    m_Level: 0
    m_CycleOffset: 0
    m_HasAdditiveReferencePose: 0
    m_LoopTime: 1
    m_LoopBlend: 0
    m_LoopBlendOrientation: 0
    m_LoopBlendPositionY: 0
    m_LoopBlendPositionXZ: 0
    m_KeepOriginalOrientation: 0
    m_KeepOriginalPositionY: 1
    m_KeepOriginalPositionXZ: 0
    m_HeightFromFeet: 0
    m_Mirror: 0
  m_EditorCurves: []
  m_EulerEditorCurves: []
  m_HasGenericRootTransform: 0
  m_HasMotionFloatCurves: 0
  m_GenerateMotionCurves: 0
  m_Events: []
