%YAML 1.1
%TAG !u! tag:unity3d.com,2011:
--- !u!74 &7400000
AnimationClip:
  m_ObjectHideFlags: 0
  m_PrefabParentObject: {fileID: 0}
  m_PrefabInternal: {fileID: 0}
  m_Name: flying bat
  serializedVersion: 6
  m_Legacy: 0
  m_Compressed: 0
  m_UseHighQualityCurve: 1
  m_RotationCurves: []
  m_CompressedRotationCurves: []
  m_EulerCurves: []
  m_PositionCurves: []
  m_ScaleCurves: []
  m_FloatCurves: []
  m_PPtrCurves:
  - curve:
    - time: 0
      value: {fileID: 21300000, guid: 372aacd6e52a7454488e3dbc9052cc3a, type: 3}
    - time: 0.1
      value: {fileID: 21300000, guid: 57b7becdd0506b94ea8d85a4f842cbe8, type: 3}
    - time: 0.2
      value: {fileID: 21300000, guid: d55b2f88c722ad3479e26db14f72a796, type: 3}
    - time: 0.3
      value: {fileID: 21300000, guid: eeac51dfccecfb34595ff173a94d2447, type: 3}
    - time: 0.4
      value: {fileID: 21300000, guid: 423538c5a59d28b48807952a0d537268, type: 3}
    - time: 0.5
      value: {fileID: 21300000, guid: 02332940a99ce5a4e966d12cb0a7ff01, type: 3}
    - time: 0.6
      value: {fileID: 21300000, guid: cecef43edcaba694e8a84b22066f1a56, type: 3}
    attribute: m_Sprite
    path: 
    classID: 212
    script: {fileID: 0}
  m_SampleRate: 10
  m_WrapMode: 0
  m_Bounds:
    m_Center: {x: 0, y: 0, z: 0}
    m_Extent: {x: 0, y: 0, z: 0}
  m_ClipBindingConstant:
    genericBindings:
    - serializedVersion: 2
      path: 0
      attribute: 0
      script: {fileID: 0}
      typeID: 212
      customType: 23
      isPPtrCurve: 1
    pptrCurveMapping:
    - {fileID: 21300000, guid: 372aacd6e52a7454488e3dbc9052cc3a, type: 3}
    - {fileID: 21300000, guid: 57b7becdd0506b94ea8d85a4f842cbe8, type: 3}
    - {fileID: 21300000, guid: d55b2f88c722ad3479e26db14f72a796, type: 3}
    - {fileID: 21300000, guid: eeac51dfccecfb34595ff173a94d2447, type: 3}
    - {fileID: 21300000, guid: 423538c5a59d28b48807952a0d537268, type: 3}
    - {fileID: 21300000, guid: 02332940a99ce5a4e966d12cb0a7ff01, type: 3}
    - {fileID: 21300000, guid: cecef43edcaba694e8a84b22066f1a56, type: 3}
  m_AnimationClipSettings:
    serializedVersion: 2
    m_AdditiveReferencePoseClip: {fileID: 0}
    m_AdditiveReferencePoseTime: 0
    m_StartTime: 0
    m_StopTime: 0.70000005
    m_OrientationOffsetY: 0
    m_Level: 0
    m_CycleOffset: 0
    m_HasAdditiveReferencePose: 0
    m_LoopTime: 1
    m_LoopBlend: 0
    m_LoopBlendOrientation: 0
    m_LoopBlendPositionY: 0
    m_LoopBlendPositionXZ: 0
    m_KeepOriginalOrientation: 0
    m_KeepOriginalPositionY: 1
    m_KeepOriginalPositionXZ: 0
    m_HeightFromFeet: 0
    m_Mirror: 0
  m_EditorCurves: []
  m_EulerEditorCurves: []
  m_HasGenericRootTransform: 0
  m_HasMotionFloatCurves: 0
  m_GenerateMotionCurves: 0
  m_Events: []
