%YAML 1.1
%TAG !u! tag:unity3d.com,2011:
--- !u!74 &7400000
AnimationClip:
  m_ObjectHideFlags: 0
  m_PrefabParentObject: {fileID: 0}
  m_PrefabInternal: {fileID: 0}
  m_Name: chicken
  serializedVersion: 6
  m_Legacy: 0
  m_Compressed: 0
  m_UseHighQualityCurve: 1
  m_RotationCurves: []
  m_CompressedRotationCurves: []
  m_EulerCurves: []
  m_PositionCurves: []
  m_ScaleCurves: []
  m_FloatCurves: []
  m_PPtrCurves:
  - curve:
    - time: 0
      value: {fileID: 21300000, guid: 686db3335d3018c45bf841d1062e6f70, type: 3}
    - time: 0.083333336
      value: {fileID: 21300002, guid: 686db3335d3018c45bf841d1062e6f70, type: 3}
    - time: 0.16666667
      value: {fileID: 21300004, guid: 686db3335d3018c45bf841d1062e6f70, type: 3}
    - time: 0.25
      value: {fileID: 21300006, guid: 686db3335d3018c45bf841d1062e6f70, type: 3}
    - time: 0.33333334
      value: {fileID: 21300008, guid: 686db3335d3018c45bf841d1062e6f70, type: 3}
    - time: 0.4166667
      value: {fileID: 21300010, guid: 686db3335d3018c45bf841d1062e6f70, type: 3}
    - time: 0.5
      value: {fileID: 21300012, guid: 686db3335d3018c45bf841d1062e6f70, type: 3}
    - time: 0.5833333
      value: {fileID: 21300014, guid: 686db3335d3018c45bf841d1062e6f70, type: 3}
    - time: 0.6666666
      value: {fileID: 21300016, guid: 686db3335d3018c45bf841d1062e6f70, type: 3}
    - time: 0.74999994
      value: {fileID: 21300018, guid: 686db3335d3018c45bf841d1062e6f70, type: 3}
    - time: 0.83333325
      value: {fileID: 21300020, guid: 686db3335d3018c45bf841d1062e6f70, type: 3}
    - time: 0.91666657
      value: {fileID: 21300022, guid: 686db3335d3018c45bf841d1062e6f70, type: 3}
    - time: 0.9999999
      value: {fileID: 21300024, guid: 686db3335d3018c45bf841d1062e6f70, type: 3}
    - time: 1.0833333
      value: {fileID: 21300026, guid: 686db3335d3018c45bf841d1062e6f70, type: 3}
    - time: 1.1666666
      value: {fileID: 21300028, guid: 686db3335d3018c45bf841d1062e6f70, type: 3}
    - time: 1.25
      value: {fileID: 21300030, guid: 686db3335d3018c45bf841d1062e6f70, type: 3}
    - time: 1.3333334
      value: {fileID: 21300032, guid: 686db3335d3018c45bf841d1062e6f70, type: 3}
    - time: 1.4166667
      value: {fileID: 21300034, guid: 686db3335d3018c45bf841d1062e6f70, type: 3}
    - time: 1.5000001
      value: {fileID: 21300036, guid: 686db3335d3018c45bf841d1062e6f70, type: 3}
    - time: 1.5833335
      value: {fileID: 21300038, guid: 686db3335d3018c45bf841d1062e6f70, type: 3}
    - time: 1.6666669
      value: {fileID: 21300040, guid: 686db3335d3018c45bf841d1062e6f70, type: 3}
    - time: 1.7500002
      value: {fileID: 21300042, guid: 686db3335d3018c45bf841d1062e6f70, type: 3}
    - time: 1.8333336
      value: {fileID: 21300044, guid: 686db3335d3018c45bf841d1062e6f70, type: 3}
    - time: 1.916667
      value: {fileID: 21300046, guid: 686db3335d3018c45bf841d1062e6f70, type: 3}
    - time: 2.0000002
      value: {fileID: 21300048, guid: 686db3335d3018c45bf841d1062e6f70, type: 3}
    - time: 2.0833335
      value: {fileID: 21300050, guid: 686db3335d3018c45bf841d1062e6f70, type: 3}
    - time: 2.1666667
      value: {fileID: 21300052, guid: 686db3335d3018c45bf841d1062e6f70, type: 3}
    - time: 2.25
      value: {fileID: 21300054, guid: 686db3335d3018c45bf841d1062e6f70, type: 3}
    - time: 2.3333333
      value: {fileID: 21300056, guid: 686db3335d3018c45bf841d1062e6f70, type: 3}
    - time: 2.4166665
      value: {fileID: 21300058, guid: 686db3335d3018c45bf841d1062e6f70, type: 3}
    - time: 2.4999998
      value: {fileID: 21300060, guid: 686db3335d3018c45bf841d1062e6f70, type: 3}
    - time: 2.583333
      value: {fileID: 21300062, guid: 686db3335d3018c45bf841d1062e6f70, type: 3}
    attribute: m_Sprite
    path: 
    classID: 212
    script: {fileID: 0}
  m_SampleRate: 12
  m_WrapMode: 0
  m_Bounds:
    m_Center: {x: 0, y: 0, z: 0}
    m_Extent: {x: 0, y: 0, z: 0}
  m_ClipBindingConstant:
    genericBindings:
    - serializedVersion: 2
      path: 0
      attribute: 0
      script: {fileID: 0}
      typeID: 212
      customType: 23
      isPPtrCurve: 1
    pptrCurveMapping:
    - {fileID: 21300000, guid: 686db3335d3018c45bf841d1062e6f70, type: 3}
    - {fileID: 21300002, guid: 686db3335d3018c45bf841d1062e6f70, type: 3}
    - {fileID: 21300004, guid: 686db3335d3018c45bf841d1062e6f70, type: 3}
    - {fileID: 21300006, guid: 686db3335d3018c45bf841d1062e6f70, type: 3}
    - {fileID: 21300008, guid: 686db3335d3018c45bf841d1062e6f70, type: 3}
    - {fileID: 21300010, guid: 686db3335d3018c45bf841d1062e6f70, type: 3}
    - {fileID: 21300012, guid: 686db3335d3018c45bf841d1062e6f70, type: 3}
    - {fileID: 21300014, guid: 686db3335d3018c45bf841d1062e6f70, type: 3}
    - {fileID: 21300016, guid: 686db3335d3018c45bf841d1062e6f70, type: 3}
    - {fileID: 21300018, guid: 686db3335d3018c45bf841d1062e6f70, type: 3}
    - {fileID: 21300020, guid: 686db3335d3018c45bf841d1062e6f70, type: 3}
    - {fileID: 21300022, guid: 686db3335d3018c45bf841d1062e6f70, type: 3}
    - {fileID: 21300024, guid: 686db3335d3018c45bf841d1062e6f70, type: 3}
    - {fileID: 21300026, guid: 686db3335d3018c45bf841d1062e6f70, type: 3}
    - {fileID: 21300028, guid: 686db3335d3018c45bf841d1062e6f70, type: 3}
    - {fileID: 21300030, guid: 686db3335d3018c45bf841d1062e6f70, type: 3}
    - {fileID: 21300032, guid: 686db3335d3018c45bf841d1062e6f70, type: 3}
    - {fileID: 21300034, guid: 686db3335d3018c45bf841d1062e6f70, type: 3}
    - {fileID: 21300036, guid: 686db3335d3018c45bf841d1062e6f70, type: 3}
    - {fileID: 21300038, guid: 686db3335d3018c45bf841d1062e6f70, type: 3}
    - {fileID: 21300040, guid: 686db3335d3018c45bf841d1062e6f70, type: 3}
    - {fileID: 21300042, guid: 686db3335d3018c45bf841d1062e6f70, type: 3}
    - {fileID: 21300044, guid: 686db3335d3018c45bf841d1062e6f70, type: 3}
    - {fileID: 21300046, guid: 686db3335d3018c45bf841d1062e6f70, type: 3}
    - {fileID: 21300048, guid: 686db3335d3018c45bf841d1062e6f70, type: 3}
    - {fileID: 21300050, guid: 686db3335d3018c45bf841d1062e6f70, type: 3}
    - {fileID: 21300052, guid: 686db3335d3018c45bf841d1062e6f70, type: 3}
    - {fileID: 21300054, guid: 686db3335d3018c45bf841d1062e6f70, type: 3}
    - {fileID: 21300056, guid: 686db3335d3018c45bf841d1062e6f70, type: 3}
    - {fileID: 21300058, guid: 686db3335d3018c45bf841d1062e6f70, type: 3}
    - {fileID: 21300060, guid: 686db3335d3018c45bf841d1062e6f70, type: 3}
    - {fileID: 21300062, guid: 686db3335d3018c45bf841d1062e6f70, type: 3}
  m_AnimationClipSettings:
    serializedVersion: 2
    m_AdditiveReferencePoseClip: {fileID: 0}
    m_AdditiveReferencePoseTime: 0
    m_StartTime: 0
    m_StopTime: 2.6666663
    m_OrientationOffsetY: 0
    m_Level: 0
    m_CycleOffset: 0
    m_HasAdditiveReferencePose: 0
    m_LoopTime: 1
    m_LoopBlend: 0
    m_LoopBlendOrientation: 0
    m_LoopBlendPositionY: 0
    m_LoopBlendPositionXZ: 0
    m_KeepOriginalOrientation: 0
    m_KeepOriginalPositionY: 1
    m_KeepOriginalPositionXZ: 0
    m_HeightFromFeet: 0
    m_Mirror: 0
  m_EditorCurves: []
  m_EulerEditorCurves: []
  m_HasGenericRootTransform: 0
  m_HasMotionFloatCurves: 0
  m_GenerateMotionCurves: 0
  m_Events: []
