%YAML 1.1
%TAG !u! tag:unity3d.com,2011:
--- !u!74 &7400000
AnimationClip:
  m_ObjectHideFlags: 0
  m_PrefabParentObject: {fileID: 0}
  m_PrefabInternal: {fileID: 0}
  m_Name: pillarRunning
  serializedVersion: 6
  m_Legacy: 0
  m_Compressed: 0
  m_UseHighQualityCurve: 1
  m_RotationCurves: []
  m_CompressedRotationCurves: []
  m_EulerCurves: []
  m_PositionCurves: []
  m_ScaleCurves: []
  m_FloatCurves: []
  m_PPtrCurves:
  - curve:
    - time: 0
      value: {fileID: 21300000, guid: 77346b61233c5364fab400a3dd4261f0, type: 3}
    - time: 0.1
      value: {fileID: 21300000, guid: b35206f01ef6a944cb3db11952a1e251, type: 3}
    - time: 0.2
      value: {fileID: 21300000, guid: c725a1c41c6d7054dbc54aea83f2fe25, type: 3}
    - time: 0.3
      value: {fileID: 21300000, guid: 3b3551a7e681df34abc922bded457236, type: 3}
    - time: 0.4
      value: {fileID: 21300000, guid: 421b074f232f34845983fa9ef5be3123, type: 3}
    - time: 0.5
      value: {fileID: 21300000, guid: 2012d428330ddea4586209668d405226, type: 3}
    - time: 0.6
      value: {fileID: 21300000, guid: 8eb160ba5242d7745af3e3ac70c7c222, type: 3}
    - time: 0.7
      value: {fileID: 21300000, guid: 80687cf7807c0084388776363e175e0d, type: 3}
    - time: 0.8
      value: {fileID: 21300000, guid: 6bbb6272f97ad2442800b0bac6be5855, type: 3}
    - time: 0.9
      value: {fileID: 21300000, guid: 09f15ee1a07f71447b9c6aa0ff7d7eae, type: 3}
    - time: 1
      value: {fileID: 21300000, guid: 0e7c9d3447474874b93a1a8b862bc51e, type: 3}
    - time: 1.1
      value: {fileID: 21300000, guid: 62fc8ab5821eb9047ba23c92983745e9, type: 3}
    - time: 1.2
      value: {fileID: 21300000, guid: 64da872ae53cf1847bd17ae9108ed64a, type: 3}
    - time: 1.3
      value: {fileID: 21300000, guid: 544a89908272f2d408af23f9bfd2446d, type: 3}
    - time: 1.4
      value: {fileID: 21300000, guid: 5599a2e0cad9fb34fa6dd2287428ada2, type: 3}
    - time: 1.5
      value: {fileID: 21300000, guid: 14c36315f4014c5469b0e87f0314c75d, type: 3}
    - time: 1.6
      value: {fileID: 21300000, guid: e524e999f001db845999d36c7a40f53e, type: 3}
    - time: 1.7
      value: {fileID: 21300000, guid: 0752b2ba4849b1745a0065a2d937eb0f, type: 3}
    - time: 1.8
      value: {fileID: 21300000, guid: 318b2d5a393041c478efb923579d7f16, type: 3}
    - time: 1.9
      value: {fileID: 21300000, guid: 235c29f0b6cd57e44b371de91405b984, type: 3}
    - time: 2
      value: {fileID: 21300000, guid: da1d19f4193583a418dd4066d953f77e, type: 3}
    - time: 2.1
      value: {fileID: 21300000, guid: b2ff2bc705bf21f47a7866c8c946f787, type: 3}
    - time: 2.2
      value: {fileID: 21300000, guid: ccfc785282a86284eab514dedf406330, type: 3}
    - time: 2.3
      value: {fileID: 21300000, guid: 7246d3000110bf244b0a13e4708026a1, type: 3}
    - time: 2.4
      value: {fileID: 21300000, guid: 4df70e1a201f1bb45aa0fc6ab6881220, type: 3}
    - time: 2.5
      value: {fileID: 21300000, guid: b12a437fbb6597a47af829351ade61a8, type: 3}
    - time: 2.6
      value: {fileID: 21300000, guid: 72d37f30ec7d0ec4ab31d01f8058c556, type: 3}
    - time: 2.7
      value: {fileID: 21300000, guid: 8c2c199c3b15fd64e8853e392c83f3d0, type: 3}
    - time: 2.8
      value: {fileID: 21300000, guid: 5e4ba198b26cdaa4a8b8d972191b3c2e, type: 3}
    - time: 2.9
      value: {fileID: 21300000, guid: ba56a3eaae52feb49beed6a911488609, type: 3}
    - time: 3
      value: {fileID: 21300000, guid: ac21e39cadabf5946b02f562658d6e69, type: 3}
    - time: 3.1
      value: {fileID: 21300000, guid: f773f301ad9038a48bc0bc1476fc1012, type: 3}
    attribute: m_Sprite
    path: 
    classID: 212
    script: {fileID: 0}
  m_SampleRate: 10
  m_WrapMode: 0
  m_Bounds:
    m_Center: {x: 0, y: 0, z: 0}
    m_Extent: {x: 0, y: 0, z: 0}
  m_ClipBindingConstant:
    genericBindings:
    - serializedVersion: 2
      path: 0
      attribute: 0
      script: {fileID: 0}
      typeID: 212
      customType: 23
      isPPtrCurve: 1
    pptrCurveMapping:
    - {fileID: 21300000, guid: 77346b61233c5364fab400a3dd4261f0, type: 3}
    - {fileID: 21300000, guid: b35206f01ef6a944cb3db11952a1e251, type: 3}
    - {fileID: 21300000, guid: c725a1c41c6d7054dbc54aea83f2fe25, type: 3}
    - {fileID: 21300000, guid: 3b3551a7e681df34abc922bded457236, type: 3}
    - {fileID: 21300000, guid: 421b074f232f34845983fa9ef5be3123, type: 3}
    - {fileID: 21300000, guid: 2012d428330ddea4586209668d405226, type: 3}
    - {fileID: 21300000, guid: 8eb160ba5242d7745af3e3ac70c7c222, type: 3}
    - {fileID: 21300000, guid: 80687cf7807c0084388776363e175e0d, type: 3}
    - {fileID: 21300000, guid: 6bbb6272f97ad2442800b0bac6be5855, type: 3}
    - {fileID: 21300000, guid: 09f15ee1a07f71447b9c6aa0ff7d7eae, type: 3}
    - {fileID: 21300000, guid: 0e7c9d3447474874b93a1a8b862bc51e, type: 3}
    - {fileID: 21300000, guid: 62fc8ab5821eb9047ba23c92983745e9, type: 3}
    - {fileID: 21300000, guid: 64da872ae53cf1847bd17ae9108ed64a, type: 3}
    - {fileID: 21300000, guid: 544a89908272f2d408af23f9bfd2446d, type: 3}
    - {fileID: 21300000, guid: 5599a2e0cad9fb34fa6dd2287428ada2, type: 3}
    - {fileID: 21300000, guid: 14c36315f4014c5469b0e87f0314c75d, type: 3}
    - {fileID: 21300000, guid: e524e999f001db845999d36c7a40f53e, type: 3}
    - {fileID: 21300000, guid: 0752b2ba4849b1745a0065a2d937eb0f, type: 3}
    - {fileID: 21300000, guid: 318b2d5a393041c478efb923579d7f16, type: 3}
    - {fileID: 21300000, guid: 235c29f0b6cd57e44b371de91405b984, type: 3}
    - {fileID: 21300000, guid: da1d19f4193583a418dd4066d953f77e, type: 3}
    - {fileID: 21300000, guid: b2ff2bc705bf21f47a7866c8c946f787, type: 3}
    - {fileID: 21300000, guid: ccfc785282a86284eab514dedf406330, type: 3}
    - {fileID: 21300000, guid: 7246d3000110bf244b0a13e4708026a1, type: 3}
    - {fileID: 21300000, guid: 4df70e1a201f1bb45aa0fc6ab6881220, type: 3}
    - {fileID: 21300000, guid: b12a437fbb6597a47af829351ade61a8, type: 3}
    - {fileID: 21300000, guid: 72d37f30ec7d0ec4ab31d01f8058c556, type: 3}
    - {fileID: 21300000, guid: 8c2c199c3b15fd64e8853e392c83f3d0, type: 3}
    - {fileID: 21300000, guid: 5e4ba198b26cdaa4a8b8d972191b3c2e, type: 3}
    - {fileID: 21300000, guid: ba56a3eaae52feb49beed6a911488609, type: 3}
    - {fileID: 21300000, guid: ac21e39cadabf5946b02f562658d6e69, type: 3}
    - {fileID: 21300000, guid: f773f301ad9038a48bc0bc1476fc1012, type: 3}
  m_AnimationClipSettings:
    serializedVersion: 2
    m_AdditiveReferencePoseClip: {fileID: 0}
    m_AdditiveReferencePoseTime: 0
    m_StartTime: 0
    m_StopTime: 3.1999998
    m_OrientationOffsetY: 0
    m_Level: 0
    m_CycleOffset: 0
    m_HasAdditiveReferencePose: 0
    m_LoopTime: 1
    m_LoopBlend: 0
    m_LoopBlendOrientation: 0
    m_LoopBlendPositionY: 0
    m_LoopBlendPositionXZ: 0
    m_KeepOriginalOrientation: 0
    m_KeepOriginalPositionY: 1
    m_KeepOriginalPositionXZ: 0
    m_HeightFromFeet: 0
    m_Mirror: 0
  m_EditorCurves: []
  m_EulerEditorCurves: []
  m_HasGenericRootTransform: 0
  m_HasMotionFloatCurves: 0
  m_GenerateMotionCurves: 0
  m_Events: []
