%YAML 1.1
%TAG !u! tag:unity3d.com,2011:
--- !u!74 &7400000
AnimationClip:
  m_ObjectHideFlags: 0
  m_CorrespondingSourceObject: {fileID: 0}
  m_PrefabInstance: {fileID: 0}
  m_PrefabAsset: {fileID: 0}
  m_Name: mop_pail
  serializedVersion: 6
  m_Legacy: 0
  m_Compressed: 0
  m_UseHighQualityCurve: 1
  m_RotationCurves: []
  m_CompressedRotationCurves: []
  m_EulerCurves: []
  m_PositionCurves: []
  m_ScaleCurves: []
  m_FloatCurves: []
  m_PPtrCurves:
  - curve:
    - time: 0
      value: {fileID: 21300000, guid: 1c942e136054f1d4e8fe6761dbfb5e15, type: 3}
    - time: 0.083333336
      value: {fileID: 21300000, guid: 83cec22d48f2cc949a2123011775f9dc, type: 3}
    - time: 0.16666667
      value: {fileID: 21300000, guid: 4613a27dcbc494142a57421d3572f67b, type: 3}
    - time: 0.25
      value: {fileID: 21300000, guid: ecc9839f8db65da4c859d4d0b1d560e5, type: 3}
    - time: 0.33333334
      value: {fileID: 21300000, guid: cf00fcb5eb66a99428cef42d855b9fcb, type: 3}
    - time: 0.41666666
      value: {fileID: 21300000, guid: 8a72480567610854490249919956ba0c, type: 3}
    - time: 0.5
      value: {fileID: 21300000, guid: 565501e799ac7104ca275c8556f7f988, type: 3}
    - time: 0.5833333
      value: {fileID: 21300000, guid: b3df1ed7695d81b4ea79d17f601cc270, type: 3}
    - time: 0.6666667
      value: {fileID: 21300000, guid: 39ae1423e15c0ff459a6032d03d644cf, type: 3}
    - time: 0.75
      value: {fileID: 21300000, guid: 1345ab4dae4b8f143992f07f3736a2cf, type: 3}
    - time: 0.8333333
      value: {fileID: 21300000, guid: 66e42447354364d42977f6584fed07b8, type: 3}
    - time: 0.9166667
      value: {fileID: 21300000, guid: e671e2a00742cee4482c645c7606cc52, type: 3}
    - time: 1
      value: {fileID: 21300000, guid: 03f12f31a5a909f4f901a1f358284700, type: 3}
    - time: 1.0833334
      value: {fileID: 21300000, guid: 34a2eda2b75b4d1488915ad6cd9b4cec, type: 3}
    - time: 1.1666666
      value: {fileID: 21300000, guid: 962fb8e257b2e8345bafdcf8e148d5de, type: 3}
    - time: 1.25
      value: {fileID: 21300000, guid: b6eebf248f175654fa6ce6b81d5795e7, type: 3}
    - time: 1.3333334
      value: {fileID: 21300000, guid: 2310c9c5a82bc764286078f4c9759b1b, type: 3}
    - time: 1.4166666
      value: {fileID: 21300000, guid: 116e6e3784ab6ec4ab891053f6ae7c01, type: 3}
    - time: 1.5
      value: {fileID: 21300000, guid: 434f616cc50353d47a110dac7f8278af, type: 3}
    - time: 1.5833334
      value: {fileID: 21300000, guid: c222a6d58e7946443a5179493b122a0a, type: 3}
    - time: 1.6666666
      value: {fileID: 21300000, guid: c56755784f8dd3e4eaa4d5dd542431c2, type: 3}
    - time: 1.75
      value: {fileID: 21300000, guid: aa1e9922522bfe3409a525faa3f9297b, type: 3}
    - time: 1.8333334
      value: {fileID: 21300000, guid: 0ec63e4a84955e640bc9176243b28e20, type: 3}
    - time: 1.9166666
      value: {fileID: 21300000, guid: 70cf8d7c34027224d9cf20866bd53345, type: 3}
    - time: 2
      value: {fileID: 21300000, guid: a359daaa2c28b124fb4ac8db4f1a3963, type: 3}
    - time: 2.0833333
      value: {fileID: 21300000, guid: 8bc1ad51b25e3ae4397f9d9dcae4e1dd, type: 3}
    - time: 2.1666667
      value: {fileID: 21300000, guid: 27f90246aa9f46a499c3ad1827d46801, type: 3}
    attribute: m_Sprite
    path: 
    classID: 212
    script: {fileID: 0}
  m_SampleRate: 12
  m_WrapMode: 0
  m_Bounds:
    m_Center: {x: 0, y: 0, z: 0}
    m_Extent: {x: 0, y: 0, z: 0}
  m_ClipBindingConstant:
    genericBindings:
    - serializedVersion: 2
      path: 0
      attribute: 0
      script: {fileID: 0}
      typeID: 212
      customType: 23
      isPPtrCurve: 1
    pptrCurveMapping:
    - {fileID: 21300000, guid: 1c942e136054f1d4e8fe6761dbfb5e15, type: 3}
    - {fileID: 21300000, guid: 83cec22d48f2cc949a2123011775f9dc, type: 3}
    - {fileID: 21300000, guid: 4613a27dcbc494142a57421d3572f67b, type: 3}
    - {fileID: 21300000, guid: ecc9839f8db65da4c859d4d0b1d560e5, type: 3}
    - {fileID: 21300000, guid: cf00fcb5eb66a99428cef42d855b9fcb, type: 3}
    - {fileID: 21300000, guid: 8a72480567610854490249919956ba0c, type: 3}
    - {fileID: 21300000, guid: 565501e799ac7104ca275c8556f7f988, type: 3}
    - {fileID: 21300000, guid: b3df1ed7695d81b4ea79d17f601cc270, type: 3}
    - {fileID: 21300000, guid: 39ae1423e15c0ff459a6032d03d644cf, type: 3}
    - {fileID: 21300000, guid: 1345ab4dae4b8f143992f07f3736a2cf, type: 3}
    - {fileID: 21300000, guid: 66e42447354364d42977f6584fed07b8, type: 3}
    - {fileID: 21300000, guid: e671e2a00742cee4482c645c7606cc52, type: 3}
    - {fileID: 21300000, guid: 03f12f31a5a909f4f901a1f358284700, type: 3}
    - {fileID: 21300000, guid: 34a2eda2b75b4d1488915ad6cd9b4cec, type: 3}
    - {fileID: 21300000, guid: 962fb8e257b2e8345bafdcf8e148d5de, type: 3}
    - {fileID: 21300000, guid: b6eebf248f175654fa6ce6b81d5795e7, type: 3}
    - {fileID: 21300000, guid: 2310c9c5a82bc764286078f4c9759b1b, type: 3}
    - {fileID: 21300000, guid: 116e6e3784ab6ec4ab891053f6ae7c01, type: 3}
    - {fileID: 21300000, guid: 434f616cc50353d47a110dac7f8278af, type: 3}
    - {fileID: 21300000, guid: c222a6d58e7946443a5179493b122a0a, type: 3}
    - {fileID: 21300000, guid: c56755784f8dd3e4eaa4d5dd542431c2, type: 3}
    - {fileID: 21300000, guid: aa1e9922522bfe3409a525faa3f9297b, type: 3}
    - {fileID: 21300000, guid: 0ec63e4a84955e640bc9176243b28e20, type: 3}
    - {fileID: 21300000, guid: 70cf8d7c34027224d9cf20866bd53345, type: 3}
    - {fileID: 21300000, guid: a359daaa2c28b124fb4ac8db4f1a3963, type: 3}
    - {fileID: 21300000, guid: 8bc1ad51b25e3ae4397f9d9dcae4e1dd, type: 3}
    - {fileID: 21300000, guid: 27f90246aa9f46a499c3ad1827d46801, type: 3}
  m_AnimationClipSettings:
    serializedVersion: 2
    m_AdditiveReferencePoseClip: {fileID: 0}
    m_AdditiveReferencePoseTime: 0
    m_StartTime: 0
    m_StopTime: 2.25
    m_OrientationOffsetY: 0
    m_Level: 0
    m_CycleOffset: 0
    m_HasAdditiveReferencePose: 0
    m_LoopTime: 1
    m_LoopBlend: 0
    m_LoopBlendOrientation: 0
    m_LoopBlendPositionY: 0
    m_LoopBlendPositionXZ: 0
    m_KeepOriginalOrientation: 0
    m_KeepOriginalPositionY: 1
    m_KeepOriginalPositionXZ: 0
    m_HeightFromFeet: 0
    m_Mirror: 0
  m_EditorCurves: []
  m_EulerEditorCurves: []
  m_HasGenericRootTransform: 0
  m_HasMotionFloatCurves: 0
  m_Events: []
