%YAML 1.1
%TAG !u! tag:unity3d.com,2011:
--- !u!74 &7400000
AnimationClip:
  m_ObjectHideFlags: 0
  m_PrefabParentObject: {fileID: 0}
  m_PrefabInternal: {fileID: 0}
  m_Name: rabbit
  serializedVersion: 6
  m_Legacy: 0
  m_Compressed: 0
  m_UseHighQualityCurve: 1
  m_RotationCurves: []
  m_CompressedRotationCurves: []
  m_EulerCurves: []
  m_PositionCurves: []
  m_ScaleCurves: []
  m_FloatCurves: []
  m_PPtrCurves:
  - curve:
    - time: 0
      value: {fileID: 21300000, guid: de410004470206e4cb249daf45797650, type: 3}
    - time: 0.05
      value: {fileID: 21300000, guid: 402525c71fb8eed4baa1f1ff83223ccd, type: 3}
    - time: 0.1
      value: {fileID: 21300000, guid: fc6a96bcc3f82674aa3eb44d7972c9f9, type: 3}
    - time: 0.15
      value: {fileID: 21300000, guid: a4818e21612703d4695b378246c51751, type: 3}
    - time: 0.2
      value: {fileID: 21300000, guid: 43d21080d3fbdd645a8eb3c77fb03786, type: 3}
    - time: 0.25
      value: {fileID: 21300000, guid: 71ee603fb83ac6f49bd33647fb6c1b4e, type: 3}
    - time: 0.3
      value: {fileID: 21300000, guid: be702e12d092c45478b35a21ff46c5d5, type: 3}
    - time: 0.35
      value: {fileID: 21300000, guid: 93a70dd6e6b297d4eaed24dd57a9f78f, type: 3}
    - time: 0.4
      value: {fileID: 21300000, guid: dedfa4424fe35614c8b6cdd9fe70afcd, type: 3}
    - time: 0.45
      value: {fileID: 21300000, guid: ace4cfa659a5040488bb8f96548a01ca, type: 3}
    - time: 0.5
      value: {fileID: 21300000, guid: c770ac187d0a54c4f8768f2324db037c, type: 3}
    - time: 0.55
      value: {fileID: 21300000, guid: 71b64ca6c367ad9489e180be0eb519c3, type: 3}
    - time: 0.6
      value: {fileID: 21300000, guid: be518b95f2542f6479258d11bd05c7af, type: 3}
    - time: 0.65
      value: {fileID: 21300000, guid: d4eb524cc4ae0b045ad14bc0ad5ff000, type: 3}
    - time: 0.7
      value: {fileID: 21300000, guid: a964e4d2065b2e9428361cb51a738895, type: 3}
    - time: 0.75
      value: {fileID: 21300000, guid: 018f63069b6fc654994ce9ca9521f490, type: 3}
    - time: 0.8
      value: {fileID: 21300000, guid: 2615f88ac1d03f043b6ade85102d80d4, type: 3}
    - time: 0.85
      value: {fileID: 21300000, guid: 5602e67a255c9654d978a49101e4d0c3, type: 3}
    - time: 0.9
      value: {fileID: 21300000, guid: f7ae7b6827916794b82f9be6dd3f6a81, type: 3}
    - time: 0.95
      value: {fileID: 21300000, guid: 00440877d583bee41a4c8295ce0843b2, type: 3}
    - time: 1
      value: {fileID: 21300000, guid: dea8b842e580e2c498af32699f548e33, type: 3}
    - time: 1.05
      value: {fileID: 21300000, guid: 8b3b35d69b4ec6342b95817d286dc82b, type: 3}
    - time: 1.1
      value: {fileID: 21300000, guid: 18619b10366864b438daa26a9edaf4ea, type: 3}
    - time: 1.15
      value: {fileID: 21300000, guid: 7d967e2ea679f8e49af1473324bbec4a, type: 3}
    - time: 1.2
      value: {fileID: 21300000, guid: dcd9551eee5532c45b555355acddc574, type: 3}
    - time: 1.25
      value: {fileID: 21300000, guid: d17f1f13011084244a1c06d4975056f0, type: 3}
    - time: 1.3
      value: {fileID: 21300000, guid: 9e004161997ee864cb1fbf154d6a39a1, type: 3}
    - time: 1.35
      value: {fileID: 21300000, guid: 0245308e9aac912478aafed18e217ee9, type: 3}
    - time: 1.4
      value: {fileID: 21300000, guid: 7b96621d340c92f43847e6707ac25947, type: 3}
    - time: 1.45
      value: {fileID: 21300000, guid: 844bc5883329ba64dbd2a18a2da589e3, type: 3}
    - time: 1.5
      value: {fileID: 21300000, guid: 3027c9ee9c46da94691567860e36940f, type: 3}
    - time: 1.55
      value: {fileID: 21300000, guid: 0b30cff6a8c97494d892e79e34306e09, type: 3}
    - time: 1.6
      value: {fileID: 21300000, guid: 7c6b8ffbd9142184b961bd957e4a15e5, type: 3}
    - time: 1.65
      value: {fileID: 21300000, guid: 8fd1aa5bc0de3df4c879166069b65118, type: 3}
    - time: 1.7
      value: {fileID: 21300000, guid: 4caba185bbabb9b4c88aef6539f60700, type: 3}
    - time: 1.75
      value: {fileID: 21300000, guid: 745e03dd779568f4eb5806841d2b4093, type: 3}
    - time: 1.8
      value: {fileID: 21300000, guid: b5d842876b6edb24f965bec0d1c3115a, type: 3}
    - time: 1.85
      value: {fileID: 21300000, guid: b15b4dbd082fac042bb79748090a5649, type: 3}
    - time: 1.9
      value: {fileID: 21300000, guid: 5118329a6f5e30649aaf3748971956e7, type: 3}
    - time: 1.95
      value: {fileID: 21300000, guid: 1851c9b9333f6b74f951a90fca0b6e4b, type: 3}
    - time: 2
      value: {fileID: 21300000, guid: 54a45da2f0c6a6941bfa7bb045e1bc66, type: 3}
    - time: 2.05
      value: {fileID: 21300000, guid: f9fc35181f6239a4f8cc20f88bf7d5dc, type: 3}
    - time: 2.1
      value: {fileID: 21300000, guid: 3371c67958141b744824376c1eb1f7b2, type: 3}
    - time: 2.15
      value: {fileID: 21300000, guid: 299d3d0f61ab30e4581994defa3a9809, type: 3}
    - time: 2.2
      value: {fileID: 21300000, guid: ee8f9b592885a95408c4108a12acd458, type: 3}
    - time: 2.25
      value: {fileID: 21300000, guid: f4da4a4fc5f24d8419716bea75bc4ba2, type: 3}
    - time: 2.3
      value: {fileID: 21300000, guid: 0847bb4f4949ae5469e8c6169fa072a7, type: 3}
    - time: 2.35
      value: {fileID: 21300000, guid: a7c27d7633f0b9e45aa523cba2271ad5, type: 3}
    - time: 2.4
      value: {fileID: 21300000, guid: f8fa878aa50361241a26a6288731530b, type: 3}
    - time: 2.45
      value: {fileID: 21300000, guid: 0a4542d624b9eb245addb05ab1f72c70, type: 3}
    - time: 2.5
      value: {fileID: 21300000, guid: 6c8c6971503e9d14a911d4d90e88da85, type: 3}
    - time: 2.55
      value: {fileID: 21300000, guid: a4c303585c17fc94a938d3df7e6cdf11, type: 3}
    - time: 2.6
      value: {fileID: 21300000, guid: 94fab26d7885af7499786f48c3bf35ba, type: 3}
    - time: 2.65
      value: {fileID: 21300000, guid: d7beabd5850f7b548a97ff7c4500041c, type: 3}
    - time: 2.7
      value: {fileID: 21300000, guid: 713faa38f45b0b742bfab6a755f4ab14, type: 3}
    - time: 2.75
      value: {fileID: 21300000, guid: 95c14b049bd0b7646b2f2e493e71ea13, type: 3}
    - time: 2.8
      value: {fileID: 21300000, guid: 6de438efb04343d48879a87c6500be2f, type: 3}
    - time: 2.85
      value: {fileID: 21300000, guid: b8fd390bce954ec439fed7a592bda1ec, type: 3}
    - time: 2.9
      value: {fileID: 21300000, guid: 66348ca601d42204fa7e2fb17b64e2f3, type: 3}
    - time: 2.95
      value: {fileID: 21300000, guid: 5ac6ba8667de2f143a9c54b0af30cd81, type: 3}
    - time: 3
      value: {fileID: 21300000, guid: 2eabd0aecbce1c445ba5c874bd7fea7c, type: 3}
    - time: 3.05
      value: {fileID: 21300000, guid: 37d9547c2fa0cf540bedcde31fc60051, type: 3}
    - time: 3.1
      value: {fileID: 21300000, guid: 363617450f7a1d74d98c4fed8e381812, type: 3}
    - time: 3.15
      value: {fileID: 21300000, guid: 8c52e3f180359084094d531ff9d54a95, type: 3}
    - time: 3.2
      value: {fileID: 21300000, guid: a1e66f2c21de7ae42acbefd49d936058, type: 3}
    - time: 3.25
      value: {fileID: 21300000, guid: 08707aba291638b41aa4141045a312f9, type: 3}
    - time: 3.3
      value: {fileID: 21300000, guid: 1530bb37232c8384cb0998068ce46254, type: 3}
    - time: 3.35
      value: {fileID: 21300000, guid: 2a98922fb288c324387457182b0ca0d0, type: 3}
    - time: 3.4
      value: {fileID: 21300000, guid: dab1b1a0c97593342ad234ffd14acd46, type: 3}
    - time: 3.45
      value: {fileID: 21300000, guid: 59f8925c1984d044d86bc8e4d0d52b11, type: 3}
    - time: 3.5
      value: {fileID: 21300000, guid: 87de31ac3fd84054bac6f6db6e8665c1, type: 3}
    - time: 3.55
      value: {fileID: 21300000, guid: 1f0db78969d4d2745a556c0116a1f370, type: 3}
    - time: 3.6
      value: {fileID: 21300000, guid: 600c6089a9fc7994cbfbda591e5ff63f, type: 3}
    - time: 3.65
      value: {fileID: 21300000, guid: 0760848d209d283429f422a171e00eed, type: 3}
    - time: 3.7
      value: {fileID: 21300000, guid: a8f86d32e39216d48937d0c1c0f60a72, type: 3}
    - time: 3.75
      value: {fileID: 21300000, guid: c6ed68d24665f264aa2bf287f0c8ab28, type: 3}
    - time: 3.8
      value: {fileID: 21300000, guid: 14aaca05388931e49a695370add014ba, type: 3}
    - time: 3.85
      value: {fileID: 21300000, guid: 4c26559e10209c34da8860e127c31f2f, type: 3}
    - time: 3.9
      value: {fileID: 21300000, guid: 635240cb31bc40f459b9bd121d89d874, type: 3}
    - time: 3.95
      value: {fileID: 21300000, guid: f4fadcd69ca132f4f971391d559db85c, type: 3}
    - time: 4
      value: {fileID: 21300000, guid: 0fbd1d8a328da8343bdcf6578c798ef2, type: 3}
    - time: 4.05
      value: {fileID: 21300000, guid: e9eca92b0dd3e2e49bcb0f300dade48e, type: 3}
    - time: 4.1
      value: {fileID: 21300000, guid: 7e4f2a07296b10f40b1fd8e6b12606ce, type: 3}
    - time: 4.15
      value: {fileID: 21300000, guid: 9074618376c224d47ad32e304c541126, type: 3}
    - time: 4.2
      value: {fileID: 21300000, guid: ae0b2770433915b40b2d605032c868e4, type: 3}
    - time: 4.25
      value: {fileID: 21300000, guid: 3d74e7bfbe5a7ee47be2741c3d32acc5, type: 3}
    - time: 4.3
      value: {fileID: 21300000, guid: 3f428d52d65e7b94cb26caf659152dc1, type: 3}
    - time: 4.35
      value: {fileID: 21300000, guid: 3f3782148d9f46644bfa3b1692bf3f0e, type: 3}
    - time: 4.4
      value: {fileID: 21300000, guid: 3910ec6492788ba4695a2fbf359dc7e3, type: 3}
    - time: 4.45
      value: {fileID: 21300000, guid: 332ee1e6a443af8488f4e5f0647ecc86, type: 3}
    - time: 4.5
      value: {fileID: 21300000, guid: 0582f0f64038f3848b4b5f32e44ddce6, type: 3}
    - time: 4.55
      value: {fileID: 21300000, guid: e60150b73fd255745b1604fb959a44a1, type: 3}
    - time: 4.6
      value: {fileID: 21300000, guid: bbd9ff9e40a5e864c91e3f739e591b03, type: 3}
    - time: 4.65
      value: {fileID: 21300000, guid: b32f4e1ed1d72fc429fb85424ae7fd4c, type: 3}
    - time: 4.7
      value: {fileID: 21300000, guid: 1c40b14e837d4b94cab6b132b3a3e563, type: 3}
    - time: 4.75
      value: {fileID: 21300000, guid: 17217d7c09ebf4b4b811f06f7a80506d, type: 3}
    - time: 4.8
      value: {fileID: 21300000, guid: d1e8cec5b9856ac4e9ea155a63a98244, type: 3}
    - time: 4.85
      value: {fileID: 21300000, guid: 1ff79e8a77f644c41a84f1e5de13c03c, type: 3}
    - time: 4.9
      value: {fileID: 21300000, guid: 36e097d5815a36c408fdc0de113741c8, type: 3}
    - time: 4.95
      value: {fileID: 21300000, guid: 7d99ea8c706c8e745bbee0c89ffe8081, type: 3}
    - time: 5
      value: {fileID: 21300000, guid: c689c724bbdd50d4ab8eaa1a6c1be028, type: 3}
    - time: 5.05
      value: {fileID: 21300000, guid: f08c2a7478aa5ca4f928b44f5f9f4d3d, type: 3}
    - time: 5.1
      value: {fileID: 21300000, guid: 972d4e4ea95418840b209dbda1f1d31e, type: 3}
    - time: 5.15
      value: {fileID: 21300000, guid: 3345c13166da0d24682e3b38762e6020, type: 3}
    - time: 5.2
      value: {fileID: 21300000, guid: 8859763d77870bf4fa40dc36872caa6a, type: 3}
    - time: 5.25
      value: {fileID: 21300000, guid: 1f63ee35c80999c41aae60b3fcb9cd80, type: 3}
    - time: 5.3
      value: {fileID: 21300000, guid: 78be7b6905a4e524d82fa409e656973e, type: 3}
    - time: 5.35
      value: {fileID: 21300000, guid: 3c6f6f6a00800de4ab6f29806148c909, type: 3}
    - time: 5.4
      value: {fileID: 21300000, guid: 5b0866e850de0ad4eb5766e108f94e01, type: 3}
    - time: 5.45
      value: {fileID: 21300000, guid: 0c26bbc9d61dd0a40b585e6df8887996, type: 3}
    - time: 5.5
      value: {fileID: 21300000, guid: 81a7fd49739196441b50e34bc7d37bb7, type: 3}
    - time: 5.55
      value: {fileID: 21300000, guid: 1d05c1dc25900e54a9f48ba78fb3270c, type: 3}
    - time: 5.6
      value: {fileID: 21300000, guid: 309d3c81875c8cb47be4af8dc7885423, type: 3}
    - time: 5.65
      value: {fileID: 21300000, guid: c7429830b44384144b854ba9745a91a0, type: 3}
    - time: 5.7
      value: {fileID: 21300000, guid: 107b09b8dc212b24498194eed62fb527, type: 3}
    - time: 5.75
      value: {fileID: 21300000, guid: 755d95cd40cb82743a15707becd08209, type: 3}
    - time: 5.8
      value: {fileID: 21300000, guid: a04b9d8032d5db040b19c75a19477148, type: 3}
    - time: 5.85
      value: {fileID: 21300000, guid: cf79f54be6bde9a4baa2ff6880eb70c4, type: 3}
    - time: 5.9
      value: {fileID: 21300000, guid: 17e618b7ecacea445bbaceff82fa2cae, type: 3}
    - time: 5.95
      value: {fileID: 21300000, guid: 6f9271d3d2c80ff42a58a96064ae0ff6, type: 3}
    - time: 6
      value: {fileID: 21300000, guid: f5f82edf040f3d44fb7c8250da7ea6e2, type: 3}
    - time: 6.05
      value: {fileID: 21300000, guid: afcca985919835d4e9163200a63a8977, type: 3}
    - time: 6.1
      value: {fileID: 21300000, guid: acd90029b4366ab4898058a9a0bbcf71, type: 3}
    - time: 6.15
      value: {fileID: 21300000, guid: cdb255c1a0efe08438bd1199fa1fc291, type: 3}
    - time: 6.2
      value: {fileID: 21300000, guid: 923946d8699d7424da48e68768ca2fd2, type: 3}
    - time: 6.25
      value: {fileID: 21300000, guid: aebbb955a8c19e24bb661d369460fa86, type: 3}
    - time: 6.3
      value: {fileID: 21300000, guid: 9c6150dde158356429c99c768e56f3b8, type: 3}
    - time: 6.35
      value: {fileID: 21300000, guid: 9538ad4ac8278fd419e5c07d4a0e59b3, type: 3}
    - time: 6.4
      value: {fileID: 21300000, guid: da400b2061dd9b74f8b4847dc1760b11, type: 3}
    - time: 6.45
      value: {fileID: 21300000, guid: ac217f9bbe7001f4986f38771257914b, type: 3}
    - time: 6.5
      value: {fileID: 21300000, guid: 87e5bd52394238445b7ea56385724dbe, type: 3}
    - time: 6.55
      value: {fileID: 21300000, guid: ad30384d7b58d2745a17b5997b89e3b8, type: 3}
    - time: 6.6
      value: {fileID: 21300000, guid: 3ecf39993a9cd6a44ad9d401a5cab4c7, type: 3}
    - time: 6.65
      value: {fileID: 21300000, guid: 8751057d26854694da8becfd247d4ac8, type: 3}
    - time: 6.7
      value: {fileID: 21300000, guid: de7242da0162a2642b11a8ef0d1b992d, type: 3}
    - time: 6.75
      value: {fileID: 21300000, guid: 04d9ad3e5d6cc3c45b8d3690f5644e68, type: 3}
    - time: 6.8
      value: {fileID: 21300000, guid: ca1c9079408b7aa4faa03b8a1a0199ad, type: 3}
    - time: 6.85
      value: {fileID: 21300000, guid: ec7adbb27f7361e45b63569ae40a53cf, type: 3}
    - time: 6.9
      value: {fileID: 21300000, guid: 42f31233232fc1148894df5ec9410e34, type: 3}
    - time: 6.95
      value: {fileID: 21300000, guid: 0369f9f29b363124bac775f0bf48f733, type: 3}
    - time: 7
      value: {fileID: 21300000, guid: 23b49ff7db78ba7438cf53277d9ea7d6, type: 3}
    - time: 7.05
      value: {fileID: 21300000, guid: 1ac133fe38d567444b6f75eb490c0403, type: 3}
    - time: 7.1
      value: {fileID: 21300000, guid: ef9ef0d4f8e5a4541a8ab6bda722afd7, type: 3}
    - time: 7.15
      value: {fileID: 21300000, guid: acd0bea115aa9a349b4afc79170ff432, type: 3}
    - time: 7.2
      value: {fileID: 21300000, guid: 39fbd69ad8384d34e85d16f49364f51f, type: 3}
    - time: 7.25
      value: {fileID: 21300000, guid: c7e8c011063bd2346b4c008f2ff99874, type: 3}
    - time: 7.3
      value: {fileID: 21300000, guid: 92865b1715f3a8a498f2717c5b6052d1, type: 3}
    - time: 7.35
      value: {fileID: 21300000, guid: 256bdbe755437c64db432e5f2646a180, type: 3}
    - time: 7.4
      value: {fileID: 21300000, guid: bcd6872e30bd04a47b0dce057376a8ee, type: 3}
    - time: 7.45
      value: {fileID: 21300000, guid: 754de9aa809317b4196c318d8fcd9b74, type: 3}
    - time: 7.5
      value: {fileID: 21300000, guid: 3d05ec0c8914db44587eb20314200d16, type: 3}
    - time: 7.55
      value: {fileID: 21300000, guid: 7f05f3dc5e6350e4da46bad52a8b275b, type: 3}
    - time: 7.6
      value: {fileID: 21300000, guid: 32caa500d3065474a8fe54f8383d181f, type: 3}
    - time: 7.65
      value: {fileID: 21300000, guid: d423588a3b88a394a8aa8728d8d6e845, type: 3}
    - time: 7.7
      value: {fileID: 21300000, guid: e6350a2a2970e81439b49f63905d8595, type: 3}
    - time: 7.75
      value: {fileID: 21300000, guid: 40af2aade35547645a942bdb873022f2, type: 3}
    - time: 7.8
      value: {fileID: 21300000, guid: 1ab43c49146fa2649bd0ef8cf84c5de9, type: 3}
    - time: 7.85
      value: {fileID: 21300000, guid: 137d9e0724a17274d981f7aa3d7b3b86, type: 3}
    - time: 7.9
      value: {fileID: 21300000, guid: c938b429581f9d54ca0bf24b3f23841f, type: 3}
    - time: 7.95
      value: {fileID: 21300000, guid: 5f13e8571d63cef44a85d94353bcc301, type: 3}
    - time: 8
      value: {fileID: 21300000, guid: bb28c58866050724c922d4a0154ff3a1, type: 3}
    - time: 8.05
      value: {fileID: 21300000, guid: e5041251c8bf5634195b21e360a61eb5, type: 3}
    - time: 8.1
      value: {fileID: 21300000, guid: 32e3056053d88b644894a56effe927c2, type: 3}
    - time: 8.15
      value: {fileID: 21300000, guid: f10dde256f3a4a344922585cc2104568, type: 3}
    - time: 8.2
      value: {fileID: 21300000, guid: 598ccf79c92785b40af4d4e5199f6486, type: 3}
    - time: 8.25
      value: {fileID: 21300000, guid: 8565c17881e803f4c9acdf3e2036f8d9, type: 3}
    - time: 8.3
      value: {fileID: 21300000, guid: de46107e1265b44468008da1c2f0fb8d, type: 3}
    - time: 8.35
      value: {fileID: 21300000, guid: 8d36281c99972c043a8b337ae2133e9e, type: 3}
    - time: 8.4
      value: {fileID: 21300000, guid: 4dc4d6823c66e3f478fcaa8270a7e1d7, type: 3}
    - time: 8.45
      value: {fileID: 21300000, guid: d8be9c59a5833874f97bb184df96142a, type: 3}
    - time: 8.5
      value: {fileID: 21300000, guid: abc69d1d2939def41801b1909debab5e, type: 3}
    - time: 8.55
      value: {fileID: 21300000, guid: 08fc71ebcd1533346acf4f6b7a1c9486, type: 3}
    - time: 8.6
      value: {fileID: 21300000, guid: 436dd4d46185d1744b0076959d767de1, type: 3}
    - time: 8.65
      value: {fileID: 21300000, guid: 99b446c67bd76804c8f8c05cdfbb4dd1, type: 3}
    - time: 8.7
      value: {fileID: 21300000, guid: 90817da4b6ea625499cd53126f5da2f0, type: 3}
    - time: 8.75
      value: {fileID: 21300000, guid: fab85999a84e50f449ad5aade2c573dc, type: 3}
    - time: 8.8
      value: {fileID: 21300000, guid: 282ef236192a62d46a35495c5c940fc3, type: 3}
    - time: 8.85
      value: {fileID: 21300000, guid: 888f5688e8d671a4b9c871a0f7811ef4, type: 3}
    - time: 8.9
      value: {fileID: 21300000, guid: 4bd7e5cde1f26a745a440d3cb6edf713, type: 3}
    - time: 8.95
      value: {fileID: 21300000, guid: 07ab8de3e117af3438352b22962a6bfb, type: 3}
    - time: 9
      value: {fileID: 21300000, guid: 0ee0835a2bf36784388735f50d6a9f02, type: 3}
    - time: 9.05
      value: {fileID: 21300000, guid: 27b6c1275fe2f81438433c7f69bc4889, type: 3}
    - time: 9.1
      value: {fileID: 21300000, guid: c4fc3ffa0a48b784caef62ac3217bcaa, type: 3}
    attribute: m_Sprite
    path: 
    classID: 212
    script: {fileID: 0}
  m_SampleRate: 20
  m_WrapMode: 0
  m_Bounds:
    m_Center: {x: 0, y: 0, z: 0}
    m_Extent: {x: 0, y: 0, z: 0}
  m_ClipBindingConstant:
    genericBindings:
    - serializedVersion: 2
      path: 0
      attribute: 0
      script: {fileID: 0}
      typeID: 212
      customType: 23
      isPPtrCurve: 1
    pptrCurveMapping:
    - {fileID: 21300000, guid: de410004470206e4cb249daf45797650, type: 3}
    - {fileID: 21300000, guid: 402525c71fb8eed4baa1f1ff83223ccd, type: 3}
    - {fileID: 21300000, guid: fc6a96bcc3f82674aa3eb44d7972c9f9, type: 3}
    - {fileID: 21300000, guid: a4818e21612703d4695b378246c51751, type: 3}
    - {fileID: 21300000, guid: 43d21080d3fbdd645a8eb3c77fb03786, type: 3}
    - {fileID: 21300000, guid: 71ee603fb83ac6f49bd33647fb6c1b4e, type: 3}
    - {fileID: 21300000, guid: be702e12d092c45478b35a21ff46c5d5, type: 3}
    - {fileID: 21300000, guid: 93a70dd6e6b297d4eaed24dd57a9f78f, type: 3}
    - {fileID: 21300000, guid: dedfa4424fe35614c8b6cdd9fe70afcd, type: 3}
    - {fileID: 21300000, guid: ace4cfa659a5040488bb8f96548a01ca, type: 3}
    - {fileID: 21300000, guid: c770ac187d0a54c4f8768f2324db037c, type: 3}
    - {fileID: 21300000, guid: 71b64ca6c367ad9489e180be0eb519c3, type: 3}
    - {fileID: 21300000, guid: be518b95f2542f6479258d11bd05c7af, type: 3}
    - {fileID: 21300000, guid: d4eb524cc4ae0b045ad14bc0ad5ff000, type: 3}
    - {fileID: 21300000, guid: a964e4d2065b2e9428361cb51a738895, type: 3}
    - {fileID: 21300000, guid: 018f63069b6fc654994ce9ca9521f490, type: 3}
    - {fileID: 21300000, guid: 2615f88ac1d03f043b6ade85102d80d4, type: 3}
    - {fileID: 21300000, guid: 5602e67a255c9654d978a49101e4d0c3, type: 3}
    - {fileID: 21300000, guid: f7ae7b6827916794b82f9be6dd3f6a81, type: 3}
    - {fileID: 21300000, guid: 00440877d583bee41a4c8295ce0843b2, type: 3}
    - {fileID: 21300000, guid: dea8b842e580e2c498af32699f548e33, type: 3}
    - {fileID: 21300000, guid: 8b3b35d69b4ec6342b95817d286dc82b, type: 3}
    - {fileID: 21300000, guid: 18619b10366864b438daa26a9edaf4ea, type: 3}
    - {fileID: 21300000, guid: 7d967e2ea679f8e49af1473324bbec4a, type: 3}
    - {fileID: 21300000, guid: dcd9551eee5532c45b555355acddc574, type: 3}
    - {fileID: 21300000, guid: d17f1f13011084244a1c06d4975056f0, type: 3}
    - {fileID: 21300000, guid: 9e004161997ee864cb1fbf154d6a39a1, type: 3}
    - {fileID: 21300000, guid: 0245308e9aac912478aafed18e217ee9, type: 3}
    - {fileID: 21300000, guid: 7b96621d340c92f43847e6707ac25947, type: 3}
    - {fileID: 21300000, guid: 844bc5883329ba64dbd2a18a2da589e3, type: 3}
    - {fileID: 21300000, guid: 3027c9ee9c46da94691567860e36940f, type: 3}
    - {fileID: 21300000, guid: 0b30cff6a8c97494d892e79e34306e09, type: 3}
    - {fileID: 21300000, guid: 7c6b8ffbd9142184b961bd957e4a15e5, type: 3}
    - {fileID: 21300000, guid: 8fd1aa5bc0de3df4c879166069b65118, type: 3}
    - {fileID: 21300000, guid: 4caba185bbabb9b4c88aef6539f60700, type: 3}
    - {fileID: 21300000, guid: 745e03dd779568f4eb5806841d2b4093, type: 3}
    - {fileID: 21300000, guid: b5d842876b6edb24f965bec0d1c3115a, type: 3}
    - {fileID: 21300000, guid: b15b4dbd082fac042bb79748090a5649, type: 3}
    - {fileID: 21300000, guid: 5118329a6f5e30649aaf3748971956e7, type: 3}
    - {fileID: 21300000, guid: 1851c9b9333f6b74f951a90fca0b6e4b, type: 3}
    - {fileID: 21300000, guid: 54a45da2f0c6a6941bfa7bb045e1bc66, type: 3}
    - {fileID: 21300000, guid: f9fc35181f6239a4f8cc20f88bf7d5dc, type: 3}
    - {fileID: 21300000, guid: 3371c67958141b744824376c1eb1f7b2, type: 3}
    - {fileID: 21300000, guid: 299d3d0f61ab30e4581994defa3a9809, type: 3}
    - {fileID: 21300000, guid: ee8f9b592885a95408c4108a12acd458, type: 3}
    - {fileID: 21300000, guid: f4da4a4fc5f24d8419716bea75bc4ba2, type: 3}
    - {fileID: 21300000, guid: 0847bb4f4949ae5469e8c6169fa072a7, type: 3}
    - {fileID: 21300000, guid: a7c27d7633f0b9e45aa523cba2271ad5, type: 3}
    - {fileID: 21300000, guid: f8fa878aa50361241a26a6288731530b, type: 3}
    - {fileID: 21300000, guid: 0a4542d624b9eb245addb05ab1f72c70, type: 3}
    - {fileID: 21300000, guid: 6c8c6971503e9d14a911d4d90e88da85, type: 3}
    - {fileID: 21300000, guid: a4c303585c17fc94a938d3df7e6cdf11, type: 3}
    - {fileID: 21300000, guid: 94fab26d7885af7499786f48c3bf35ba, type: 3}
    - {fileID: 21300000, guid: d7beabd5850f7b548a97ff7c4500041c, type: 3}
    - {fileID: 21300000, guid: 713faa38f45b0b742bfab6a755f4ab14, type: 3}
    - {fileID: 21300000, guid: 95c14b049bd0b7646b2f2e493e71ea13, type: 3}
    - {fileID: 21300000, guid: 6de438efb04343d48879a87c6500be2f, type: 3}
    - {fileID: 21300000, guid: b8fd390bce954ec439fed7a592bda1ec, type: 3}
    - {fileID: 21300000, guid: 66348ca601d42204fa7e2fb17b64e2f3, type: 3}
    - {fileID: 21300000, guid: 5ac6ba8667de2f143a9c54b0af30cd81, type: 3}
    - {fileID: 21300000, guid: 2eabd0aecbce1c445ba5c874bd7fea7c, type: 3}
    - {fileID: 21300000, guid: 37d9547c2fa0cf540bedcde31fc60051, type: 3}
    - {fileID: 21300000, guid: 363617450f7a1d74d98c4fed8e381812, type: 3}
    - {fileID: 21300000, guid: 8c52e3f180359084094d531ff9d54a95, type: 3}
    - {fileID: 21300000, guid: a1e66f2c21de7ae42acbefd49d936058, type: 3}
    - {fileID: 21300000, guid: 08707aba291638b41aa4141045a312f9, type: 3}
    - {fileID: 21300000, guid: 1530bb37232c8384cb0998068ce46254, type: 3}
    - {fileID: 21300000, guid: 2a98922fb288c324387457182b0ca0d0, type: 3}
    - {fileID: 21300000, guid: dab1b1a0c97593342ad234ffd14acd46, type: 3}
    - {fileID: 21300000, guid: 59f8925c1984d044d86bc8e4d0d52b11, type: 3}
    - {fileID: 21300000, guid: 87de31ac3fd84054bac6f6db6e8665c1, type: 3}
    - {fileID: 21300000, guid: 1f0db78969d4d2745a556c0116a1f370, type: 3}
    - {fileID: 21300000, guid: 600c6089a9fc7994cbfbda591e5ff63f, type: 3}
    - {fileID: 21300000, guid: 0760848d209d283429f422a171e00eed, type: 3}
    - {fileID: 21300000, guid: a8f86d32e39216d48937d0c1c0f60a72, type: 3}
    - {fileID: 21300000, guid: c6ed68d24665f264aa2bf287f0c8ab28, type: 3}
    - {fileID: 21300000, guid: 14aaca05388931e49a695370add014ba, type: 3}
    - {fileID: 21300000, guid: 4c26559e10209c34da8860e127c31f2f, type: 3}
    - {fileID: 21300000, guid: 635240cb31bc40f459b9bd121d89d874, type: 3}
    - {fileID: 21300000, guid: f4fadcd69ca132f4f971391d559db85c, type: 3}
    - {fileID: 21300000, guid: 0fbd1d8a328da8343bdcf6578c798ef2, type: 3}
    - {fileID: 21300000, guid: e9eca92b0dd3e2e49bcb0f300dade48e, type: 3}
    - {fileID: 21300000, guid: 7e4f2a07296b10f40b1fd8e6b12606ce, type: 3}
    - {fileID: 21300000, guid: 9074618376c224d47ad32e304c541126, type: 3}
    - {fileID: 21300000, guid: ae0b2770433915b40b2d605032c868e4, type: 3}
    - {fileID: 21300000, guid: 3d74e7bfbe5a7ee47be2741c3d32acc5, type: 3}
    - {fileID: 21300000, guid: 3f428d52d65e7b94cb26caf659152dc1, type: 3}
    - {fileID: 21300000, guid: 3f3782148d9f46644bfa3b1692bf3f0e, type: 3}
    - {fileID: 21300000, guid: 3910ec6492788ba4695a2fbf359dc7e3, type: 3}
    - {fileID: 21300000, guid: 332ee1e6a443af8488f4e5f0647ecc86, type: 3}
    - {fileID: 21300000, guid: 0582f0f64038f3848b4b5f32e44ddce6, type: 3}
    - {fileID: 21300000, guid: e60150b73fd255745b1604fb959a44a1, type: 3}
    - {fileID: 21300000, guid: bbd9ff9e40a5e864c91e3f739e591b03, type: 3}
    - {fileID: 21300000, guid: b32f4e1ed1d72fc429fb85424ae7fd4c, type: 3}
    - {fileID: 21300000, guid: 1c40b14e837d4b94cab6b132b3a3e563, type: 3}
    - {fileID: 21300000, guid: 17217d7c09ebf4b4b811f06f7a80506d, type: 3}
    - {fileID: 21300000, guid: d1e8cec5b9856ac4e9ea155a63a98244, type: 3}
    - {fileID: 21300000, guid: 1ff79e8a77f644c41a84f1e5de13c03c, type: 3}
    - {fileID: 21300000, guid: 36e097d5815a36c408fdc0de113741c8, type: 3}
    - {fileID: 21300000, guid: 7d99ea8c706c8e745bbee0c89ffe8081, type: 3}
    - {fileID: 21300000, guid: c689c724bbdd50d4ab8eaa1a6c1be028, type: 3}
    - {fileID: 21300000, guid: f08c2a7478aa5ca4f928b44f5f9f4d3d, type: 3}
    - {fileID: 21300000, guid: 972d4e4ea95418840b209dbda1f1d31e, type: 3}
    - {fileID: 21300000, guid: 3345c13166da0d24682e3b38762e6020, type: 3}
    - {fileID: 21300000, guid: 8859763d77870bf4fa40dc36872caa6a, type: 3}
    - {fileID: 21300000, guid: 1f63ee35c80999c41aae60b3fcb9cd80, type: 3}
    - {fileID: 21300000, guid: 78be7b6905a4e524d82fa409e656973e, type: 3}
    - {fileID: 21300000, guid: 3c6f6f6a00800de4ab6f29806148c909, type: 3}
    - {fileID: 21300000, guid: 5b0866e850de0ad4eb5766e108f94e01, type: 3}
    - {fileID: 21300000, guid: 0c26bbc9d61dd0a40b585e6df8887996, type: 3}
    - {fileID: 21300000, guid: 81a7fd49739196441b50e34bc7d37bb7, type: 3}
    - {fileID: 21300000, guid: 1d05c1dc25900e54a9f48ba78fb3270c, type: 3}
    - {fileID: 21300000, guid: 309d3c81875c8cb47be4af8dc7885423, type: 3}
    - {fileID: 21300000, guid: c7429830b44384144b854ba9745a91a0, type: 3}
    - {fileID: 21300000, guid: 107b09b8dc212b24498194eed62fb527, type: 3}
    - {fileID: 21300000, guid: 755d95cd40cb82743a15707becd08209, type: 3}
    - {fileID: 21300000, guid: a04b9d8032d5db040b19c75a19477148, type: 3}
    - {fileID: 21300000, guid: cf79f54be6bde9a4baa2ff6880eb70c4, type: 3}
    - {fileID: 21300000, guid: 17e618b7ecacea445bbaceff82fa2cae, type: 3}
    - {fileID: 21300000, guid: 6f9271d3d2c80ff42a58a96064ae0ff6, type: 3}
    - {fileID: 21300000, guid: f5f82edf040f3d44fb7c8250da7ea6e2, type: 3}
    - {fileID: 21300000, guid: afcca985919835d4e9163200a63a8977, type: 3}
    - {fileID: 21300000, guid: acd90029b4366ab4898058a9a0bbcf71, type: 3}
    - {fileID: 21300000, guid: cdb255c1a0efe08438bd1199fa1fc291, type: 3}
    - {fileID: 21300000, guid: 923946d8699d7424da48e68768ca2fd2, type: 3}
    - {fileID: 21300000, guid: aebbb955a8c19e24bb661d369460fa86, type: 3}
    - {fileID: 21300000, guid: 9c6150dde158356429c99c768e56f3b8, type: 3}
    - {fileID: 21300000, guid: 9538ad4ac8278fd419e5c07d4a0e59b3, type: 3}
    - {fileID: 21300000, guid: da400b2061dd9b74f8b4847dc1760b11, type: 3}
    - {fileID: 21300000, guid: ac217f9bbe7001f4986f38771257914b, type: 3}
    - {fileID: 21300000, guid: 87e5bd52394238445b7ea56385724dbe, type: 3}
    - {fileID: 21300000, guid: ad30384d7b58d2745a17b5997b89e3b8, type: 3}
    - {fileID: 21300000, guid: 3ecf39993a9cd6a44ad9d401a5cab4c7, type: 3}
    - {fileID: 21300000, guid: 8751057d26854694da8becfd247d4ac8, type: 3}
    - {fileID: 21300000, guid: de7242da0162a2642b11a8ef0d1b992d, type: 3}
    - {fileID: 21300000, guid: 04d9ad3e5d6cc3c45b8d3690f5644e68, type: 3}
    - {fileID: 21300000, guid: ca1c9079408b7aa4faa03b8a1a0199ad, type: 3}
    - {fileID: 21300000, guid: ec7adbb27f7361e45b63569ae40a53cf, type: 3}
    - {fileID: 21300000, guid: 42f31233232fc1148894df5ec9410e34, type: 3}
    - {fileID: 21300000, guid: 0369f9f29b363124bac775f0bf48f733, type: 3}
    - {fileID: 21300000, guid: 23b49ff7db78ba7438cf53277d9ea7d6, type: 3}
    - {fileID: 21300000, guid: 1ac133fe38d567444b6f75eb490c0403, type: 3}
    - {fileID: 21300000, guid: ef9ef0d4f8e5a4541a8ab6bda722afd7, type: 3}
    - {fileID: 21300000, guid: acd0bea115aa9a349b4afc79170ff432, type: 3}
    - {fileID: 21300000, guid: 39fbd69ad8384d34e85d16f49364f51f, type: 3}
    - {fileID: 21300000, guid: c7e8c011063bd2346b4c008f2ff99874, type: 3}
    - {fileID: 21300000, guid: 92865b1715f3a8a498f2717c5b6052d1, type: 3}
    - {fileID: 21300000, guid: 256bdbe755437c64db432e5f2646a180, type: 3}
    - {fileID: 21300000, guid: bcd6872e30bd04a47b0dce057376a8ee, type: 3}
    - {fileID: 21300000, guid: 754de9aa809317b4196c318d8fcd9b74, type: 3}
    - {fileID: 21300000, guid: 3d05ec0c8914db44587eb20314200d16, type: 3}
    - {fileID: 21300000, guid: 7f05f3dc5e6350e4da46bad52a8b275b, type: 3}
    - {fileID: 21300000, guid: 32caa500d3065474a8fe54f8383d181f, type: 3}
    - {fileID: 21300000, guid: d423588a3b88a394a8aa8728d8d6e845, type: 3}
    - {fileID: 21300000, guid: e6350a2a2970e81439b49f63905d8595, type: 3}
    - {fileID: 21300000, guid: 40af2aade35547645a942bdb873022f2, type: 3}
    - {fileID: 21300000, guid: 1ab43c49146fa2649bd0ef8cf84c5de9, type: 3}
    - {fileID: 21300000, guid: 137d9e0724a17274d981f7aa3d7b3b86, type: 3}
    - {fileID: 21300000, guid: c938b429581f9d54ca0bf24b3f23841f, type: 3}
    - {fileID: 21300000, guid: 5f13e8571d63cef44a85d94353bcc301, type: 3}
    - {fileID: 21300000, guid: bb28c58866050724c922d4a0154ff3a1, type: 3}
    - {fileID: 21300000, guid: e5041251c8bf5634195b21e360a61eb5, type: 3}
    - {fileID: 21300000, guid: 32e3056053d88b644894a56effe927c2, type: 3}
    - {fileID: 21300000, guid: f10dde256f3a4a344922585cc2104568, type: 3}
    - {fileID: 21300000, guid: 598ccf79c92785b40af4d4e5199f6486, type: 3}
    - {fileID: 21300000, guid: 8565c17881e803f4c9acdf3e2036f8d9, type: 3}
    - {fileID: 21300000, guid: de46107e1265b44468008da1c2f0fb8d, type: 3}
    - {fileID: 21300000, guid: 8d36281c99972c043a8b337ae2133e9e, type: 3}
    - {fileID: 21300000, guid: 4dc4d6823c66e3f478fcaa8270a7e1d7, type: 3}
    - {fileID: 21300000, guid: d8be9c59a5833874f97bb184df96142a, type: 3}
    - {fileID: 21300000, guid: abc69d1d2939def41801b1909debab5e, type: 3}
    - {fileID: 21300000, guid: 08fc71ebcd1533346acf4f6b7a1c9486, type: 3}
    - {fileID: 21300000, guid: 436dd4d46185d1744b0076959d767de1, type: 3}
    - {fileID: 21300000, guid: 99b446c67bd76804c8f8c05cdfbb4dd1, type: 3}
    - {fileID: 21300000, guid: 90817da4b6ea625499cd53126f5da2f0, type: 3}
    - {fileID: 21300000, guid: fab85999a84e50f449ad5aade2c573dc, type: 3}
    - {fileID: 21300000, guid: 282ef236192a62d46a35495c5c940fc3, type: 3}
    - {fileID: 21300000, guid: 888f5688e8d671a4b9c871a0f7811ef4, type: 3}
    - {fileID: 21300000, guid: 4bd7e5cde1f26a745a440d3cb6edf713, type: 3}
    - {fileID: 21300000, guid: 07ab8de3e117af3438352b22962a6bfb, type: 3}
    - {fileID: 21300000, guid: 0ee0835a2bf36784388735f50d6a9f02, type: 3}
    - {fileID: 21300000, guid: 27b6c1275fe2f81438433c7f69bc4889, type: 3}
    - {fileID: 21300000, guid: c4fc3ffa0a48b784caef62ac3217bcaa, type: 3}
  m_AnimationClipSettings:
    serializedVersion: 2
    m_AdditiveReferencePoseClip: {fileID: 0}
    m_AdditiveReferencePoseTime: 0
    m_StartTime: 0
    m_StopTime: 9.150001
    m_OrientationOffsetY: 0
    m_Level: 0
    m_CycleOffset: 0
    m_HasAdditiveReferencePose: 0
    m_LoopTime: 1
    m_LoopBlend: 0
    m_LoopBlendOrientation: 0
    m_LoopBlendPositionY: 0
    m_LoopBlendPositionXZ: 0
    m_KeepOriginalOrientation: 0
    m_KeepOriginalPositionY: 1
    m_KeepOriginalPositionXZ: 0
    m_HeightFromFeet: 0
    m_Mirror: 0
  m_EditorCurves: []
  m_EulerEditorCurves: []
  m_HasGenericRootTransform: 0
  m_HasMotionFloatCurves: 0
  m_GenerateMotionCurves: 0
  m_Events: []
